[
  {
    "index": 1, 
    "name": "of Resist Acid", 
    "affixType": "elemental",
    "position": "suffix", 
    "genus": "of the Elements",
    "flags": [
      "RES_ACID", 
      "IGNORE_ACID"
    ],
    "allocations": [
      {
        "commonness": 20, 
        "maxDepth": 25, 
        "minDepth": 1, 
        "itemType": {"shield": "all", "soft armor": "all", "hard armor": ["all except", "Full Plate Armor~", "Ribbed Plate Armor~"]},
        "affixLevel": "great"
      }, 
      {
        "commonness": 10, 
        "maxDepth": 50, 
        "minDepth": 26, 
        "itemType": {"shield": "all", "soft armor": "all", "hard armor": "all"},
        "affixLevel": "good"
      }, 
      {
        "commonness": 5, 
        "maxDepth": -1, 
        "minDepth": 51, 
        "itemType": {"shield": "all", "soft armor": "all", "hard armor": "all"},
        "affixLevel": "average"
      }, 
      {
        "commonness": 5, 
        "maxDepth": -1, 
        "minDepth": 45, 
        "itemType": {"crown": "all"}, 
        "affixLevel": "great"
      }
    ] 
  }, 
  {
    "index": 2, 
    "flags": [
      "RES_ELEC", 
      "IGNORE_ELEC"
    ], 
    "name": "of Resist Lightning", 
    "affixType": "elemental",
    "position": "suffix", 
    "genus": "of the Elements",
    "allocations": [
      {
        "commonness": 20, 
        "maxDepth": 25, 
        "minDepth": 1, 
        "itemType": {"shield": "all", "soft armor": "all", "hard armor": ["all except", "Full Plate Armor~", "Ribbed Plate Armor~"]},
        "affixLevel": "great"
      }, 
      {
        "commonness": 10, 
        "maxDepth": 50, 
        "minDepth": 26, 
        "itemType": {"shield": "all", "soft armor": "all", "hard armor": "all"},
        "affixLevel": "good"
      }, 
      {
        "commonness": 5, 
        "maxDepth": -1, 
        "minDepth": 51, 
        "itemType": {"shield": "all", "soft armor": "all", "hard armor": "all"},
        "affixLevel": "average"
      }, 
      {
        "commonness": 5, 
        "maxDepth": -1, 
        "minDepth": 45, 
        "itemType": {"crown": "all"}, 
        "affixLevel": "great"
      }
    ]
  }, 
  {
    "index": 3, 
    "flags": [
      "RES_FIRE", 
      "IGNORE_FIRE"
    ], 
    "name": "of Resist Fire", 
    "affixType": "elemental",
    "position": "suffix", 
    "genus": "of the Elements",
    "allocations": [
      {
        "commonness": 20, 
        "maxDepth": 25, 
        "minDepth": 1, 
        "itemType": {"shield": "all", "soft armor": "all", "hard armor": ["all except", "Full Plate Armor~", "Ribbed Plate Armor~"]},
        "affixLevel": "great"
      }, 
      {
        "commonness": 10, 
        "maxDepth": 50, 
        "minDepth": 26, 
        "itemType": {"shield": "all", "soft armor": "all", "hard armor": "all"},
        "affixLevel": "good"
      }, 
      {
        "commonness": 5, 
        "maxDepth": -1, 
        "minDepth": 51, 
        "itemType": {"shield": "all", "soft armor": "all", "hard armor": "all"},
        "affixLevel": "average"
      }, 
      {
        "commonness": 5, 
        "maxDepth": -1, 
        "minDepth": 45, 
        "itemType": {"crown": "all"}, 
        "affixLevel": "great"
      }
    ]
  }, 
  {
    "index": 4, 
    "flags": [
      "RES_COLD", 
      "IGNORE_COLD"
    ], 
    "name": "of Resist Cold", 
    "affixType": "elemental",
    "position": "suffix", 
    "genus": "of the Elements",
    "allocations": [
      {
        "commonness": 20, 
        "maxDepth": 25, 
        "minDepth": 1, 
        "itemType": {"shield": "all", "soft armor": "all", "hard armor": ["all except", "Full Plate Armor~", "Ribbed Plate Armor~"]},
        "affixLevel": "great"
      }, 
      {
        "commonness": 10, 
        "maxDepth": 50, 
        "minDepth": 26, 
        "itemType": {"shield": "all", "soft armor": "all", "hard armor": "all"},
        "affixLevel": "good"
      }, 
      {
        "commonness": 5, 
        "maxDepth": -1, 
        "minDepth": 51, 
        "itemType": {"shield": "all", "soft armor": "all", "hard armor": "all"},
        "affixLevel": "average"
      }, 
      {
        "commonness": 5, 
        "maxDepth": -1, 
        "minDepth": 45, 
        "itemType": {"crown": "all"}, 
        "affixLevel": "great"
      }
    ]
  }, 
  {
    "flags": [
      "AGGRAVATE", 
      "LIGHT_CURSE"
    ], 
    "index": 10, 
    "stats": {
      "armorBonus": "-d50"
    }, 
    "name": "of Vulnerability", 
    "position": "suffix"
  }, 
  {
    "index": 11, 
    "flags": [
      "AGGRAVATE"
    ], 
    "name": "of Aggravation", 
    "position": "suffix"
  }, 
  {
    "index": 20, 
    "name": "Null"
  }, 
  {
    "index": 23, 
    "flags": [
      "SUST_INT"
    ], 
    "name": "of Sophistication", 
    "affixType": "mental",
    "position": "suffix",
    "genus": "of the Mind",
    "allocations": [
      {
        "commonness": 20, 
        "maxDepth": 50, 
        "minDepth": 5, 
        "itemType": {"helm": "all"}, 
        "affixLevel": "good"
      }, 
      {
        "commonness": 10, 
        "maxDepth": -1, 
        "minDepth": 51, 
        "itemType": {"helm": "all"}, 
        "affixLevel": "average"
      }, 
      {
        "commonness": 10, 
        "maxDepth": 75, 
        "minDepth": 45, 
        "itemType": {"crown": "all"}, 
        "affixLevel": "good"
      }, 
      {
        "commonness": 5, 
        "maxDepth": -1, 
        "minDepth": 76, 
        "itemType": {"crown": "all"}, 
        "affixLevel": "average"
      }, 
      {
        "commonness": 10, 
        "maxDepth": -1, 
        "minDepth": 40, 
        "itemType": {"cloak": "all"}, 
        "affixLevel": "great"
      }
    ] 
  }, 
  {
    "index": 24, 
    "mods": [
      {
        "bonus": "d2", 
        "minimum": "0", 
        "flags": [
          "INT"
        ]
      }
    ], 
    "name": "of Intelligence", 
    "affixType": "mental",
    "position": "suffix",
    "genus": "of the Mind",
    "allocations": [
      {
        "commonness": 20, 
        "maxDepth": -1, 
        "minDepth": 5, 
        "itemType": {"helm": "all"}, 
        "affixLevel": "great"
      }, 
      {
        "commonness": 10, 
        "maxDepth": -1, 
        "minDepth": 45, 
        "itemType": {"crown": "all"}, 
        "affixLevel": "great"
      }, 
      {
        "commonness": 10, 
        "maxDepth": -1, 
        "minDepth": 21, 
        "itemType": {"polearm": "all", "sword": "all", "hafted": "all"},
        "affixLevel": "great"
      }, 
      {
        "commonness": 10, 
        "maxDepth": -1, 
        "minDepth": 40, 
        "itemType": {"cloak": "all"}, 
        "affixLevel": "uber"
      }
    ]
  }, 
  {
    "index": 25, 
    "mods": [
      {
        "bonus": "d2", 
        "minimum": "0", 
        "flags": [
          "WIS"
        ]
      }
    ], 
    "name": "of Wisdom", 
    "affixType": "mental",
    "position": "suffix",
    "genus": "of the Mind",
    "allocations": [
      {
        "commonness": 20, 
        "maxDepth": -1, 
        "minDepth": 5, 
        "itemType": {"helm": "all"}, 
        "affixLevel": "great"
      }, 
      {
        "commonness": 10, 
        "maxDepth": -1, 
        "minDepth": 45, 
        "itemType": {"crown": "all"}, 
        "affixLevel": "great"
      }, 
      {
        "commonness": 10, 
        "maxDepth": -1, 
        "minDepth": 21, 
        "itemType": {"polearm": "all", "sword": "all", "hafted": "all"},
        "affixLevel": "great"
      }
    ]
  }, 
  {
    "index": 26, 
    "flags": [
      "SUST_WIS"
    ], 
    "name": "of Intuition", 
    "affixType": "mental",
    "position": "suffix",
    "genus": "of the Mind",
    "allocations": [
      {
        "commonness": 20, 
        "maxDepth": 50, 
        "minDepth": 5, 
        "itemType": {"helm": "all"}, 
        "affixLevel": "good"
      }, 
      {
        "commonness": 10, 
        "maxDepth": -1, 
        "minDepth": 51, 
        "itemType": {"helm": "all"}, 
        "affixLevel": "average"
      }, 
      {
        "commonness": 10, 
        "maxDepth": 75, 
        "minDepth": 45, 
        "itemType": {"crown": "all"}, 
        "affixLevel": "good"
      }, 
      {
        "commonness": 5, 
        "maxDepth": -1, 
        "minDepth": 76, 
        "itemType": {"crown": "all"}, 
        "affixLevel": "average"
      }
    ]
  }, 
  {
    "index": 27, 
    "mods": [
      {
        "bonus": "d3", 
        "minimum": "0", 
        "flags": [
          "CHR"
        ]
      }
    ], 
    "name": "of Beauty", 
    "affixType": "physical",
    "position": "suffix",
    "genus": "of the Body",
    "flags": [
      "SUST_CHR"
    ], 
    "allocations": [
      {
        "commonness": 20, 
        "maxDepth": 30, 
        "minDepth": 1, 
        "itemType": {"helm": "all"}, 
        "affixLevel": "good"
      }, 
      {
        "commonness": 10, 
        "maxDepth": 60, 
        "minDepth": 31, 
        "itemType": {"helm": "all"}, 
        "affixLevel": "average"
      }, 
      {
        "commonness": 10, 
        "maxDepth": 75, 
        "minDepth": 45, 
        "itemType": {"crown": "all"}, 
        "affixLevel": "good"
      }, 
      {
        "commonness": 5, 
        "maxDepth": -1, 
        "minDepth": 76, 
        "itemType": {"crown": "all"}, 
        "affixLevel": "average"
      }
    ]
  }, 
  {
    "index": 29, 
    "flags": [
      "SEE_INVIS"
    ], 
    "name": "of Observation", 
    "affixType": "physical",
    "position": "suffix",
    "genus": "of Detection",
    "allocations": [
      {
        "commonness": 20, 
        "maxDepth": -1, 
        "minDepth": 10, 
        "itemType": {"helm": "all"}, 
        "affixLevel": "great"
      }, 
      {
        "commonness": 10, 
        "maxDepth": 50, 
        "minDepth": 21, 
        "itemType": {"polearm": "all", "sword": "all", "hafted": "all"},
        "affixLevel": "great"
      }, 
      {
        "commonness": 5, 
        "maxDepth": -1, 
        "minDepth": 51, 
        "itemType": {"polearm": "all", "sword": "all", "hafted": "all"},
        "affixLevel": "good"
      }, 
      {
        "commonness": 10, 
        "maxDepth": -1, 
        "minDepth": 21, 
        "itemType": {"light": "all"}, 
        "affixLevel": "great"
      }
    ]
  }, 
  {
    "index": 30, 
    "flags": [
      "RES_BLIND"
    ], 
    "name": "of Seeing", 
    "affixType": "physical",
    "position": "suffix",
    "genus": "of Detection",
    "allocations": [
      {
        "commonness": 20, 
        "maxDepth": -1, 
        "minDepth": 10, 
        "itemType": {"helm": "all"}, 
        "affixLevel": "great"
      }, 
      {
        "commonness": 10, 
        "maxDepth": -1, 
        "minDepth": 21, 
        "itemType": {"polearm": "all", "sword": "all", "hafted": "all"},
        "affixLevel": "great"
      }, 
      {
        "commonness": 10, 
        "maxDepth": -1, 
        "minDepth": 41, 
        "itemType": {"light": "all"}, 
        "affixLevel": "uber"
      }
    ]
  }, 
  {
    "index": 31, 
    "mods": [
      {
        "bonus": "d3", 
        "minimum": "0", 
        "flags": [
          "INFRA"
        ]
      }
    ], 
    "name": "of Infravision", 
    "affixType": "physical",
    "position": "suffix",
    "genus": "of Detection",
    "allocations": [
      {
        "commonness": 20, 
        "maxDepth": 50, 
        "minDepth": 10, 
        "itemType": {"helm": "all"}, 
        "affixLevel": "good"
      }, 
      {
        "commonness": 10, 
        "maxDepth": -1, 
        "minDepth": 51, 
        "itemType": {"helm": "all"}, 
        "affixLevel": "average"
      }
    ]
  }, 
  {
    "index": 32, 
    "flags": [
      "RES_LIGHT"
    ], 
    "name": "of Light", 
    "affixType": "arcane",
    "position": "suffix",
    "genus": "of the Elements",
    "allocations": [
      {
        "commonness": 20, 
        "maxDepth": -1, 
        "minDepth": 45, 
        "itemType": {"crown": "all", "helm": "all"},
        "affixLevel": "great"
      }
    ]
  }, 
  {
    "index": 33, 
    "flags": [
      "TELEPATHY"
    ], 
    "name": "of Telepathy", 
    "affixType": "mental",
    "position": "suffix",
    "genus": "of Detection",
    "allocations": [
      {
        "commonness": 6, 
        "maxDepth": -1, 
        "minDepth": 20, 
        "itemType": {"helm": "all"}, 
        "affixLevel": "great"
      }, 
      {
        "commonness": 10, 
        "maxDepth": -1, 
        "minDepth": 45, 
        "itemType": {"crown": "all"}, 
        "affixLevel": "great"
      }
    ]
  }, 
  {
    "index": 34, 
    "flags": [
      "REGEN"
    ], 
    "name": "of Regeneration", 
    "affixType": "physical",
    "position": "suffix",
    "genus": "of the Body",
    "allocations": [
      {
        "commonness": 10, 
        "maxDepth": 50, 
        "minDepth": 21, 
        "itemType": {"polearm": "all", "sword": "all", "hafted": "all"},
        "affixLevel": "great"
      }, 
      {
        "commonness": 5, 
        "maxDepth": -1, 
        "minDepth": 51, 
        "itemType": {"polearm": "all", "sword": "all", "hafted": "all"},
        "affixLevel": "good"
      }, 
      {
        "commonness": 10, 
        "maxDepth": 80, 
        "minDepth": 15, 
        "itemType": {"crown": "all", "helm": "all"},
        "affixLevel": "great"
      }, 
      {
        "commonness": 5, 
        "maxDepth": -1, 
        "minDepth": 81, 
        "itemType": {"crown": "all", "helm": "all"},
        "affixLevel": "good"
      }
    ]
  }, 
  {
    "index": 35, 
    "flags": [
      "TELEPORT", 
      "LIGHT_CURSE"
    ], 
    "name": "of Teleportation", 
    "position": "suffix"
  }, 
  {
    "index": 38, 
    "mods": [
      {
        "bonus": "-d5", 
        "minimum": "0", 
        "flags": [
          "INT", 
          "WIS", 
          "CHR"
        ]
      }
    ], 
    "flags": [
      "LIGHT_CURSE"
    ], 
    "name": "of Dullness", 
    "position": "suffix"
  }, 
  {
    "index": 39, 
    "mods": [
      {
        "bonus": "-d5", 
        "minimum": "0", 
        "flags": [
          "STR", 
          "DEX", 
          "CON"
        ]
      }
    ], 
    "flags": [
      "LIGHT_CURSE"
    ], 
    "name": "of Sickliness", 
    "position": "suffix"
  }, 
  {
    "index": 40, 
    "stats": {
      "armorBonus": "d10"
    }, 
    "description": "It shields your body from deadly fragments.", 
    "flags": [
      "RES_SHARD"
    ], 
    "allocations": [
      {
        "commonness": 20, 
        "maxDepth": -1, 
        "minDepth": 1, 
        "itemType": {"cloak": "all"}, 
        "affixLevel": "great"
      }
    ], 
    "name": "of Shielding",
    "affixType": "physical",
    "position": "suffix",
    "genus": "of the Body"
  }, 
  {
    "index": 41, 
    "mods": [
      {
        "bonus": "d2", 
        "minimum": "0", 
        "flags": [
          "STEALTH"
        ]
      }
    ], 
    "name": "of Stealth", 
    "affixType": "physical",
    "position": "suffix",
    "genus": "of the Rogue",
    "allocations": [
      {
        "commonness": 20, 
        "maxDepth": -1, 
        "minDepth": 1, 
        "itemType": {"cloak": "all"}, 
        "affixLevel": "great"
      }, 
      {
        "commonness": 20, 
        "minDepth": 15, 
        "itemType": {"boots": ["& Pair~ of Sandals", "& Pair~ of Soft Boots", "& Pair~ of Slippers"]},
        "affixLevel": "great", 
        "maxDepth": -1 
      }
    ]
  }, 
  {
    "flags": [
      "LIGHT_CURSE"
    ], 
    "index": 44, 
    "stats": {
      "prowessBonus": "-10d10", 
      "finesseBonus": "-10d10"
    }, 
    "name": "of Enveloping", 
    "position": "suffix"
  }, 
  {
    "flags": [
      "AGGRAVATE", 
      "LIGHT_CURSE"
    ], 
    "index": 46, 
    "stats": {
      "prowessBonus": "-15d10", 
      "finesseBonus": "-15d10"
    }, 
    "name": "of Irritation", 
    "position": "suffix"
  }, 
  {
    "index": 48, 
    "flags": [
      "FREE_ACT"
    ], 
    "name": "of Free Action", 
    "affixType": "mental",
    "position": "suffix",
    "genus": "of the Mind",
    "allocations": [
      {
        "commonness": 20, 
        "maxDepth": -1, 
        "minDepth": 1, 
        "itemType": {"gloves": "all"}, 
        "affixLevel": "great"
      }, 
      {
        "commonness": 16, 
        "maxDepth": -1, 
        "minDepth": 10, 
        "itemType": {"boots": "all"}, 
        "affixLevel": "great"
      }, 
      {
        "commonness": 5, 
        "maxDepth": 50, 
        "minDepth": 21, 
        "itemType": {"polearm": "all", "sword": "all", "hafted": "all"},
        "affixLevel": "great"
      }, 
      {
        "commonness": 5, 
        "maxDepth": -1, 
        "minDepth": 51, 
        "itemType": {"polearm": "all", "sword": "all", "hafted": "all"},
        "affixLevel": "good"
      }, 
      {
        "commonness": 5, 
        "maxDepth": -1, 
        "minDepth": 45, 
        "itemType": {"crown": "all"}, 
        "affixLevel": "uber"
      }
    ]
  }, 
  {
    "index": 50, 
    "mods": [
      {
        "bonus": "d2", 
        "minimum": "0", 
        "flags": [
          "DEX"
        ]
      }
    ], 
    "name": "of Agility", 
    "affixType": "physical",
    "position": "suffix",
    "genus": "of the Body",
    "allocations": [
      {
        "commonness": 12, 
        "maxDepth": -1, 
        "minDepth": 10, 
        "itemType": {"gloves": "all"}, 
        "affixLevel": "great"
      }, 
      {
        "commonness": 10, 
        "maxDepth": -1, 
        "minDepth": 11, 
        "itemType": {"soft armor": "all", "hard armor": "all"},
        "affixLevel": "uber"
      }, 
      {
        "commonness": 10, 
        "maxDepth": -1, 
        "minDepth": 11, 
        "itemType": {"polearm": "all", "sword": "all", "hafted": "all"},
        "affixLevel": "great"
      }, 
      {
        "commonness": 10, 
        "maxDepth": -1, 
        "minDepth": 25, 
        "itemType": {"bow": "all"}, 
        "affixLevel": "great"
      }, 
      {
        "commonness": 5, 
        "maxDepth": -1, 
        "minDepth": 45, 
        "itemType": {"crown": "all"}, 
        "affixLevel": "uber"
      }
    ]
  }, 
  {
    "index": 54, 
    "mods": [
      {
        "bonus": "-d10", 
        "minimum": "0", 
        "flags": [
          "STR"
        ]
      }
    ], 
    "flags": [
      "LIGHT_CURSE"
    ], 
    "name": "of Weakness", 
    "position": "suffix"
  }, 
  {
    "index": 55, 
    "mods": [
      {
        "bonus": "-d10", 
        "minimum": "0", 
        "flags": [
          "DEX"
        ]
      }
    ], 
    "flags": [
      "LIGHT_CURSE"
    ], 
    "name": "of Clumsiness", 
    "position": "suffix"
  }, 
  {
    "index": 56, 
    "flags": [
      "FEATHER"
    ], 
    "name": "of Slow Descent", 
    "affixType": "elemental",
    "position": "suffix",
    "genus": "of the Air",
    "allocations": [
      {
        "commonness": 20, 
        "maxDepth": 40, 
        "minDepth": 5, 
        "itemType": {"boots": "all", "gloves": "all"},
        "affixLevel": "good"
      }, 
      {
        "commonness": 20, 
        "maxDepth": -1, 
        "minDepth": 41, 
        "itemType": {"boots": "all"}, 
        "affixLevel": "average"
      }, 
      {
        "commonness": 10, 
        "maxDepth": -1, 
        "minDepth": 41, 
        "itemType": {"gloves": "all"}, 
        "affixLevel": "average"
      }
    ]
  }, 
  {
    "index": 59, 
    "mods": [
      {
        "bonus": "d10", 
        "minimum": "0", 
        "flags": [
          "SPEED"
        ]
      }
    ], 
    "name": "of Speed", 
    "affixType": "arcane",
    "position": "suffix",
    "genus": "of Time",
    "allocations": [
      {
        "commonness": 2, 
        "maxDepth": -1, 
        "minDepth": 20, 
        "itemType": {"boots": "all"}, 
        "affixLevel": "uber"
      }
    ]
  }, 
  {
    "index": 62, 
    "mods": [
      {
        "bonus": "-d5", 
        "minimum": "0", 
        "flags": [
          "SPEED"
        ]
      }
    ], 
    "flags": [
      "LIGHT_CURSE"
    ], 
    "name": "of Slowness", 
    "position": "suffix"
  }, 
  {
    "index": 63, 
    "mods": [
      {
        "bonus": "-d10", 
        "minimum": "0", 
        "flags": [
          "SPEED", 
          "STEALTH"
        ]
      }
    ], 
    "flags": [
      "AGGRAVATE", 
      "LIGHT_CURSE"
    ], 
    "name": "of Annoyance", 
    "position": "suffix"
  }, 
  {
    "index": 66, 
    "flags": [
      "BLESSED"
    ], 
    "name": "of Piety", 
    "affixType": "holy",
    "position": "suffix",
    "genus": "of the Priest",
    "allocations": [
      {
        "commonness": 19, 
        "maxDepth": 60, 
        "minDepth": 1, 
        "itemType": {"polearm": "all", "sword": "all"},
        "affixLevel": "good"
      }, 
      {
        "commonness": 19, 
        "maxDepth": -1, 
        "minDepth": 61, 
        "itemType": {"polearm": "all", "sword": "all"},
        "affixLevel": "average"
      }
    ]
  }, 
  {
    "index": 68, 
    "stats": {
      "balance": 0.1
    }, 
    "name": "of Balance", 
    "affixType": "combat",
    "position": "suffix",
    "genus": "of the Warrior",
    "allocations": [
      {
        "commonness": 15, 
        "maxDepth": -1, 
        "minDepth": 30, 
        "itemType": {"hafted": "all", "polearm": "all", "sword": "all"}, 
        "affixLevel": "great"
      }
    ]
  }, 
  {
    "index": 69, 
    "stats": {
      "heft": 0.1
    }, 
    "name": "of Force", 
    "affixType": "combat",
    "position": "suffix",
    "genus": "of the Warrior",
    "allocations": [
      {
        "commonness": 15, 
        "maxDepth": -1, 
        "minDepth": 30, 
        "itemType": {"hafted": "all", "polearm": "all", "sword": "all", "digger": "all"}, 
        "affixLevel": "great"
      }
    ]
  }, 
  {
    "index": 72, 
    "mods": [
      {
        "bonus": "50+d50", 
        "minimum": "50", 
        "flags": [
          "BRAND_ACID"
        ]
      }
    ], 
    "name": "of Acid", 
    "affixType": "elemental",
    "position": "suffix",
    "genus": "of the Elements",
    "flags": [
      "RES_ACID", 
      "IGNORE_ACID"
    ], 
    "allocations": [
      {
        "commonness": 11, 
        "maxDepth": -1, 
        "minDepth": 33, 
        "itemType": {"hafted": "all", "polearm": "all", "sword": "all"},
        "affixLevel": "great"
      }, 
      {
        "commonness": 8, 
        "maxDepth": -1, 
        "minDepth": 10, 
        "itemType": {"shot": "all", "arrow": "all", "bolt": "all"},
        "affixLevel": "great"
      }
    ]
  }, 
  {
    "index": 73, 
    "mods": [
      {
        "bonus": "50+d50", 
        "minimum": "50", 
        "flags": [
          "BRAND_ELEC"
        ]
      }
    ], 
    "name": "of Lightning", 
    "affixType": "elemental",
    "position": "suffix",
    "genus": "of the Elements",
    "flags": [
      "RES_ELEC", 
      "IGNORE_ELEC"
    ], 
    "allocations": [
      {
        "commonness": 10, 
        "maxDepth": -1, 
        "minDepth": 33, 
        "itemType": {"hafted": "all", "polearm": "all", "sword": "all"},
        "affixLevel": "great"
      }, 
      {
        "commonness": 8, 
        "maxDepth": -1, 
        "minDepth": 10, 
        "itemType": {"shot": "all", "arrow": "all", "bolt": "all"},
        "affixLevel": "great"
      }
    ]
  }, 
  {
    "index": 74, 
    "mods": [
      {
        "bonus": "50+d50", 
        "minimum": "50", 
        "flags": [
          "BRAND_FIRE"
        ]
      }
    ], 
    "name": "of Flame", 
    "affixType": "elemental",
    "position": "suffix",
    "genus": "of the Elements",
    "flags": [
      "RES_FIRE", 
      "IGNORE_FIRE"
    ], 
    "allocations": [
      {
        "commonness": 17, 
        "maxDepth": -1, 
        "minDepth": 33, 
        "itemType": {"hafted": "all", "polearm": "all", "sword": "all"},
        "affixLevel": "great"
      }, 
      {
        "commonness": 12, 
        "maxDepth": -1, 
        "minDepth": 10, 
        "itemType": {"shot": "all", "arrow": "all", "bolt": "all"},
        "affixLevel": "great"
      }
    ]
  }, 
  {
    "index": 75, 
    "mods": [
      {
        "bonus": "50+d50", 
        "minimum": "50", 
        "flags": [
          "BRAND_COLD"
        ]
      }
    ], 
    "name": "of Frost", 
    "affixType": "elemental",
    "position": "suffix",
    "genus": "of the Elements",
    "flags": [
      "RES_COLD", 
      "IGNORE_COLD"
    ], 
    "allocations": [
      {
        "commonness": 16, 
        "maxDepth": -1, 
        "minDepth": 33, 
        "itemType": {"hafted": "all", "polearm": "all", "sword": "all"},
        "affixLevel": "great"
      }, 
      {
        "commonness": 12, 
        "maxDepth": -1, 
        "minDepth": 10, 
        "itemType": {"shot": "all", "arrow": "all", "bolt": "all"},
        "affixLevel": "great"
      }
    ]
  }, 
  {
    "index": 76, 
    "mods": [
      {
        "bonus": "50+d50", 
        "minimum": "50", 
        "flags": [
          "BRAND_POIS"
        ]
      }
    ], 
    "name": "of Venom", 
    "affixType": "elemental",
    "position": "suffix",
    "genus": "of the Beast",
    "allocations": [
      {
        "commonness": 18, 
        "maxDepth": -1, 
        "minDepth": 10, 
        "itemType": {"hafted": "all", "polearm": "all", "sword": "all"},
        "affixLevel": "great"
      }, 
      {
        "commonness": 12, 
        "maxDepth": -1, 
        "minDepth": 10, 
        "itemType": {"shot": "all", "arrow": "all", "bolt": "all"},
        "affixLevel": "great"
      }
    ]
  }, 
  {
    "index": 77, 
    "stats": {
      "prowessBonus": "M60", 
      "finesseBonus": "M60"
    }, 
    "minima": {
      "finesseBonus": "10", 
      "prowessBonus": "10"
    },      
    "description": "Magically boosts your ability to hit and damage enemies.", 
    "allocations": [
      {
        "commonness": 80, 
        "maxDepth": -1, 
        "minDepth": 1, 
        "itemType": {"hafted": "all", "polearm": "all", "sword": "all"},
        "affixLevel": "good"
      }, 
      {
        "commonness": 50, 
        "maxDepth": -1, 
        "minDepth": 1, 
        "itemType": {"bow": "all", "shot": "all", "arrow": "all", "bolt": "all"},
        "affixLevel": "good"
      }, 
      {
        "commonness": 20, 
        "maxDepth": -1, 
        "minDepth": 10, 
        "itemType": {"gloves": "all"}, 
        "affixLevel": "great"
      }
    ], 
    "name": "of Slaying",
    "affixType": "combat",
    "position": "suffix",
    "genus": "of the Warrior"
  }, 
  {
    "index": 78, 
    "stats": {
      "armorBonus": "M8"
    }, 
    "minima": {
      "armorBonus": 1
    },
    "description": "Magically enhances your defences.", 
    "allocations": [
      {
        "commonness": 50, 
        "maxDepth": -1, 
        "minDepth": 1, 
        "itemType": {"soft armor": "all", "hard armor": "all", "shield": "all", "cloak": "all", "gloves": "all", "boots": "all", "helm": "all"},
        "affixLevel": "good"
      }
    ], 
    "name": "of Protection",
    "affixType": "combat",
    "position": "suffix",
    "genus": "of the Warrior"
  }, 
  {
    "index": 80, 
    "mods": [
      {
        "bonus": "25+d25", 
        "minimum": "25", 
        "flags": [
          "SLAY_ANIMAL"
        ]
      }
    ], 
    "name": "of Slay Animal", 
    "affixType": "combat",
    "position": "suffix",
    "genus": "of the Beast",
    "allocations": [
      {
        "commonness": 20, 
        "maxDepth": 50, 
        "minDepth": 1, 
        "itemType": {"hafted": "all", "polearm": "all", "sword": "all"},
        "affixLevel": "great"
      }, 
      {
        "commonness": 10, 
        "maxDepth": -1, 
        "minDepth": 51, 
        "itemType": {"hafted": "all", "polearm": "all", "sword": "all"},
        "affixLevel": "good"
      }, 
      {
        "commonness": 12, 
        "maxDepth": -1, 
        "minDepth": 1, 
        "itemType": {"shot": "all", "arrow": "all", "bolt": "all"},
        "affixLevel": "great"
      }
    ]
  }, 
  {
    "index": 81, 
    "mods": [
      {
        "bonus": "25+d25", 
        "minimum": "25", 
        "flags": [
          "SLAY_EVIL"
        ]
      }
    ], 
    "name": "of Slay Evil", 
    "affixType": "holy",
    "position": "suffix",
    "genus": "of the Priest",
    "allocations": [
      {
        "commonness": 20, 
        "maxDepth": -1, 
        "minDepth": 1, 
        "itemType": {"hafted": "all", "polearm": "all", "sword": "all"},
        "affixLevel": "great"
      }, 
      {
        "commonness": 12, 
        "maxDepth": -1, 
        "minDepth": 1, 
        "itemType": {"shot": "all", "arrow": "all", "bolt": "all"},
        "affixLevel": "great"
      }
    ]
  }, 
  {
    "index": 82, 
    "mods": [
      {
        "bonus": "50+d50", 
        "minimum": "50", 
        "flags": [
          "SLAY_UNDEAD"
        ]
      }
    ], 
    "name": "of Slay Undead", 
    "affixType": "holy",
    "position": "suffix",
    "genus": "of the Priest",
    "allocations": [
      {
        "commonness": 20, 
        "minDepth": 33, 
        "maxDepth": -1,
        "itemType": {"hafted": "all", "polearm": "all", "sword": "all"},
        "affixLevel": "great" 
      }, 
      {
        "commonness": 8, 
        "maxDepth": -1, 
        "minDepth": 24, 
        "itemType": {"shot": "all", "arrow": "all", "bolt": "all"},
        "affixLevel": "great"
      }
    ]
  }, 
  {
    "index": 83, 
    "mods": [
      {
        "bonus": "50+d50", 
        "minimum": "50", 
        "flags": [
          "SLAY_DEMON"
        ]
      }
    ], 
    "name": "of Slay Demon", 
    "affixType": "holy",
    "position": "suffix",
    "genus": "of the Priest",
    "allocations": [
      {
        "commonness": 20, 
        "maxDepth": -1, 
        "minDepth": 33, 
        "itemType": {"hafted": "all", "polearm": "all", "sword": "all"},
        "affixLevel": "great"
      }, 
      {
        "commonness": 8, 
        "maxDepth": -1, 
        "minDepth": 26, 
        "itemType": {"shot": "all", "arrow": "all", "bolt": "all"},
        "affixLevel": "great"
      }
    ]
  }, 
  {
    "index": 84, 
    "mods": [
      {
        "bonus": "50+d50", 
        "minimum": "50", 
        "flags": [
          "SLAY_ORC"
        ]
      }
    ], 
    "name": "of Slay Orc", 
    "affixType": "arcane",
    "position": "suffix",
    "genus": "of the Warrior",
    "allocations": [
      {
        "commonness": 20, 
        "maxDepth": 44, 
        "minDepth": 5, 
        "itemType": {"hafted": "all", "polearm": "all", "sword": "all"},
        "affixLevel": "good"
      }
    ]
  }, 
  {
    "index": 85, 
    "mods": [
      {
        "bonus": "50+d50", 
        "minimum": "50", 
        "flags": [
          "SLAY_TROLL"
        ]
      }
    ], 
    "name": "of Slay Troll", 
    "affixType": "arcane",
    "position": "suffix",
    "genus": "of the Warrior",
    "allocations": [
      {
        "commonness": 20, 
        "maxDepth": 66, 
        "minDepth": 16, 
        "itemType": {"hafted": "all", "polearm": "all", "sword": "all"},
        "affixLevel": "good"
      }
    ]
  }, 
  {
    "index": 86, 
    "mods": [
      {
        "bonus": "50+d50", 
        "minimum": "50", 
        "flags": [
          "SLAY_GIANT"
        ]
      }
    ], 
    "name": "of Slay Giant", 
    "affixType": "arcane",
    "position": "suffix",
    "genus": "of the Warrior",
    "allocations": [
      {
        "commonness": 20, 
        "maxDepth": 70, 
        "minDepth": 24, 
        "itemType": {"hafted": "all", "polearm": "all", "sword": "all"},
        "affixLevel": "great"
      }, 
      {
        "commonness": 10, 
        "maxDepth": -1, 
        "minDepth": 71, 
        "itemType": {"hafted": "all", "polearm": "all", "sword": "all"},
        "affixLevel": "good"
      }, 
      {
        "commonness": 8, 
        "maxDepth": -1, 
        "minDepth": 24, 
        "itemType": {"shot": "all", "arrow": "all", "bolt": "all"},
        "affixLevel": "great"
      }
    ]
  }, 
  {
    "index": 87, 
    "mods": [
      {
        "bonus": "50+d50", 
        "minimum": "50", 
        "flags": [
          "SLAY_DRAGON"
        ]
      }
    ], 
    "name": "of Slay Dragon", 
    "affixType": "arcane",
    "position": "suffix",
    "genus": "of the Warrior",
    "allocations": [
      {
        "commonness": 20, 
        "maxDepth": 75, 
        "minDepth": 25, 
        "itemType": {"hafted": "all", "polearm": "all", "sword": "all"},
        "affixLevel": "great"
      }, 
      {
        "commonness": 10, 
        "maxDepth": -1, 
        "minDepth": 76, 
        "itemType": {"hafted": "all", "polearm": "all", "sword": "all"},
        "affixLevel": "good"
      }, 
      {
        "commonness": 8, 
        "maxDepth": -1, 
        "minDepth": 8, 
        "itemType": {"shot": "all", "arrow": "all", "bolt": "all"},
        "affixLevel": "great"
      }
    ]
  }, 
  {
    "index": 90, 
    "mods": [
      {
        "bonus": "100+d50", 
        "minimum": "100", 
        "flags": [
          "SLAY_UNDEAD"
        ]
      }
    ], 
    "name": "of Nightbane", 
    "affixType": "holy",
    "position": "suffix",
    "genus": "of the Priest",
    "allocations": [
      {
        "commonness": 20, 
        "minDepth": 67, 
        "maxDepth": -1, 
        "itemType": {"hafted": "all", "polearm": "all", "sword": "all"},
        "affixLevel": "uber"
      }
    ]
  }, 
  {
    "index": 91, 
    "mods": [
      {
        "bonus": "100+d50", 
        "minimum": "100", 
        "flags": [
          "SLAY_DEMON"
        ]
      }
    ], 
    "name": "of Demonbane", 
    "affixType": "holy",
    "position": "suffix",
    "genus": "of the Priest",
    "allocations": [
      {
        "commonness": 20, 
        "maxDepth": -1, 
        "minDepth": 67, 
        "itemType": {"hafted": "all", "polearm": "all", "sword": "all"},
        "affixLevel": "uber"
      }
    ]
  }, 
  {
    "index": 95, 
    "mods": [
      {
        "bonus": "100+d50", 
        "minimum": "100", 
        "flags": [
          "SLAY_DRAGON"
        ]
      }
    ], 
    "name": "of Dragonbane", 
    "affixType": "arcane",
    "position": "suffix",
    "genus": "of the Warrior",
    "allocations": [
      {
        "commonness": 20, 
        "maxDepth": -1, 
        "minDepth": 67, 
        "itemType": {"hafted": "all", "polearm": "all", "sword": "all"},
        "affixLevel": "uber"
      }
    ]
  }, 
  {
    "index": 97, 
    "mods": [
      {
        "bonus": "1", 
        "minimum": "1", 
        "flags": [
          "LIGHT"
        ]
      }
    ], 
    "name": "of Brightness", 
    "affixType": "arcane",
    "position": "suffix",
    "genus": "of Detection",
    "allocations": [
      {
        "commonness": 10, 
        "maxDepth": -1, 
        "minDepth": 10, 
        "itemType": {"light": "all"}, 
        "affixLevel": "great"
      }, 
      {
        "commonness": 10, 
        "maxDepth": -1, 
        "minDepth": 25, 
        "itemType": {"crown": "all", "helm": "all"},
        "affixLevel": "great"
      }
    ]
  }, 
  {
    "index": 98, 
    "flags": [
      "NO_FUEL"
    ], 
    "name": "of Everburning", 
    "affixType": "arcane",
    "position": "suffix",
    "genus": "of Utility",
    "allocations": [
      {
        "commonness": 12, 
        "maxDepth": -1, 
        "minDepth": 10, 
        "itemType": {"light": "all"}, 
        "affixLevel": "great"
      }
    ]
  }, 
  {
    "index": 100, 
    "mods": [
      {
        "bonus": "d2", 
        "minimum": "1", 
        "flags": [
          "TUNNEL"
        ]
      }
    ], 
    "name": "of Digging", 
    "affixType": "arcane",
    "position": "suffix",
    "genus": "of Utility",
    "allocations": [
      {
        "commonness": 20, 
        "maxDepth": -1, 
        "minDepth": 1, 
        "itemType": {"digger": "all"}, 
        "affixLevel": "great"
      }, 
      {
        "commonness": 5, 
        "maxDepth": -1, 
        "minDepth": 10, 
        "itemType": {"gloves": "all"}, 
        "affixLevel": "great"
      }
    ]
  }, 
  {
    "index": 101, 
    "flags": [
      "IMPACT"
    ], 
    "name": "of Impact", 
    "affixType": "arcane",
    "position": "suffix",
    "genus": "of the Warrior",
    "allocations": [
      {
        "commonness": 5, 
        "maxDepth": -1, 
        "minDepth": 20, 
        "itemType": {"digger": "all"}, 
        "affixLevel": "great"
      }
    ]
  }, 
  {
    "index": 102, 
    "mods": [
      {
        "bonus": "50+d50", 
        "minimum": "50", 
        "flags": [
          "SLAY_UNDEAD", 
          "BRAND_POIS"
        ]
      }
    ], 
    "flags": [
      "SEE_INVIS", 
      "AGGRAVATE", 
      "HEAVY_CURSE", 
      "LIGHT_CURSE", 
      "HOLD_LIFE", 
      "DRAIN_EXP"
    ], 
    "name": "of Morgul", 
    "position": "suffix"
  }, 
  {
    "index": 104, 
    "stats": {
      "prowessBonus": "10d5", 
      "finesseBonus": "10d15"
    }, 
    "minima": {
      "finesseBonus": "100"
    },
    "description": "It is magically aided with unerring accuracy.", 
    "allocations": [
      {
        "commonness": 20, 
        "maxDepth": -1, 
        "minDepth": 5, 
        "itemType": {"bow": "all"}, 
        "affixLevel": "great"
      }, 
      {
        "commonness": 10, 
        "maxDepth": -1, 
        "minDepth": 55, 
        "itemType": {"sword": "all", "polearm": "all"},
        "affixLevel": "uber"
      }
    ], 
    "name": "of Accuracy",
    "affixType": "combat",
    "position": "suffix",
    "genus": "of the Ranger"
  }, 
  {
    "index": 105, 
    "stats": {
      "prowessBonus": "10d15", 
      "finesseBonus": "10d5"
    }, 
    "minima": {
      "prowessBonus": "100"
    },
    "description": "Its power to damage is magically enhanced.", 
    "allocations": [
      {
        "commonness": 20, 
        "maxDepth": -1, 
        "minDepth": 10, 
        "itemType": {"bow": "all"}, 
        "affixLevel": "great"
      }, 
      {
        "commonness": 10, 
        "maxDepth": -1, 
        "minDepth": 55, 
        "itemType": {"hafted": "all", "polearm": "all"},
        "affixLevel": "uber"
      }
    ], 
    "name": "of Power",
    "affixType": "combat",
    "position": "suffix",
    "genus": "of the Ranger"
  }, 
  {
    "index": 108, 
    "mods": [
      {
        "bonus": "1", 
        "minimum": "0", 
        "flags": [
          "MIGHT"
        ]
      }
    ], 
    "stats": {
      "prowessBonus": "10d10", 
      "finesseBonus": "10d5"
    }, 
    "name": "of Extra Might", 
    "affixType": "combat",
    "position": "suffix",
    "genus": "of the Ranger",
    "allocations": [
      {
        "commonness": 10, 
        "maxDepth": -1, 
        "minDepth": 25, 
        "itemType": {"bow": "all"}, 
        "affixLevel": "great"
      }
    ]
  }, 
  {
    "index": 109, 
    "mods": [
      {
        "bonus": "1", 
        "minimum": "0", 
        "flags": [
          "SHOTS"
        ]
      }
    ], 
    "stats": {
      "prowessBonus": "10d5", 
      "finesseBonus": "10d10"
    }, 
    "name": "of Extra Shots", 
    "affixType": "combat",
    "position": "suffix",
    "genus": "of the Ranger",
    "allocations": [
      {
        "commonness": 10, 
        "maxDepth": -1, 
        "minDepth": 25, 
        "itemType": {"bow": "all"}, 
        "affixLevel": "uber"
      }
    ]
  }, 
  {
    "flags": [
      "LIGHT_CURSE", 
      "DRAIN_EXP", 
      "SEE_INVIS"
    ], 
    "index": 111, 
    "stats": {
      "prowessBonus": "10d10", 
      "finesseBonus": "-10d10"
    }, 
    "name": "of the Nazg\u00fbl", 
    "position": "suffix"
  }, 
  {
    "index": 124, 
    "stats": {
      "prowessBonus": "10d5", 
      "finesseBonus": "10d5"
    }, 
    "description": "It is more deadly than usual ammunition.", 
    "allocations": [
      {
        "commonness": 20, 
        "maxDepth": -1, 
        "minDepth": 15, 
        "itemType": {"shot": "all", "arrow": "all", "bolt": "all"},
        "affixLevel": "great"
      }
    ], 
    "name": "of Wounding",
    "affixType": "combat",
    "position": "suffix",
    "genus": "of the Ranger"
  }, 
  {
    "index": 125, 
    "description": "It is just as likely to injure the shooter as the target.", 
    "stats": {
      "prowessBonus": "-10d25", 
      "finesseBonus": "-10d25"
    }, 
    "name": "of Backbiting", 
    "position": "suffix"
  }, 
  {
    "index": 128, 
    "stats": {
      "armorBonus": "1d6M4"
    },
    "minima": {
      "prowessBonus": "0", 
      "finesseBonus": "0", 
      "armorBonus": "4"
    },
    "description": "It is finely wrought, tough yet unencumbering.", 
    "allocations": [
      {
        "commonness": 20, 
        "maxDepth": 60, 
        "minDepth": 10, 
        "itemType": {"soft armor": "all", "hard armor": "all"},
        "affixLevel": "good"
      }, 
      {
        "commonness": 10, 
        "maxDepth": -1, 
        "minDepth": 61, 
        "itemType": {"soft armor": "all", "hard armor": "all"},
        "affixLevel": "average"
      }
    ], 
    "name": "Masterwork",
    "affixType": "quality", 
    "position": "prefix",
    "genus": "Assured"
  }, 
  {
    "index": 129, 
    "mods": [
      {
        "bonus": "d5", 
        "minimum": "0", 
        "flags": [
          "SPEED"
        ]
      }
    ], 
    "name": "of Haste", 
    "position": "suffix"
  }, 
  {
    "index": 130, 
    "stats": {
      "balance": -0.2, 
      "prowessBonus": "M30", 
      "weightMod": "50%", 
      "numDice": "1"
    }, 
    "description": "It is considerably larger and heavier than normal.", 
    "allocations": [
      {
        "commonness": 5, 
        "maxDepth": -1, 
        "minDepth": 45, 
        "itemType": {"digger": "all"}, 
        "affixLevel": "great"
      }, 
      {
        "commonness": 10, 
        "maxDepth": -1, 
        "minDepth": 45, 
        "itemType": {"hafted": "all", "polearm": "all", "sword": "all"},
        "affixLevel": "great"
      }
    ], 
    "name": "Massive",
    "affixType": "quality", 
    "position": "prefix",
    "genus": "Heavy"
  }, 
  {
    "index": 131, 
    "stats": {
      "baseArmor": "-40%", 
      "weightMod": "-10%"
    }, 
    "description": "It has various holes in it from heavy use by a previous owner.", 
    "allocations": [
      {
        "commonness": 20, 
        "maxDepth": 45, 
        "minDepth": 1, 
        "itemType": {"soft armor": "all", "hard armor": "all"},
        "affixLevel": "bad"
      }
    ], 
    "name": "Damaged",
    "affixType": "quality", 
    "position": "prefix",
    "genus": "Poor"
  }, 
  {
    "index": 132, 
    "stats": {
      "baseArmor": "-10%", 
      "finesseBonus": "-20", 
      "dieSize": "-2"
    }, 
    "description": "It has corroded through in areas, and the rest is barely held together.", 
    "allocations": [
      {
        "commonness": 20, 
        "maxDepth": 55, 
        "minDepth": 1, 
        "itemType": {"hard armor": "all", "polearm": "all", "sword": "all"},
        "affixLevel": "bad"
      }, 
      {
        "commonness": 10, 
        "maxDepth": 40, 
        "minDepth": 1, 
        "itemType": {"bolt": "all"}, 
        "affixLevel": "bad"
      }
    ], 
    "conflicts": "Sharp",
    "name": "Rusty",
    "affixType": "quality", 
    "position": "prefix",
    "genus": "Poor"
  }, 
  {
    "index": 133, 
    "stats": {
      "weightMod": "-10%"
    }, 
    "description": "It is lighter than normal.", 
    "allocations": [
      {
        "commonness": 20, 
        "maxDepth": 95, 
        "minDepth": 10, 
        "itemType": {"soft armor": "all", "hard armor": "all"},
        "affixLevel": "good"
      }
    ], 
    "name": "Light",
    "affixType": "quality", 
    "position": "prefix",
    "genus": "Assured"
  }, 
  {
    "index": 134, 
    "mods": [
      {
        "bonus": "1", 
        "minimum": "1", 
        "flags": [
          "LIGHT"
        ]
      }
    ], 
    "stats": {
      "baseArmor": "10%", 
      "weightMod": "20%"
    }, 
    "name": "Golden", 
    "affixType": "material", 
    "position": "prefix",
    "genus": "Assured",
    "allocations": [
      {
        "commonness": 20, 
        "maxDepth": 95, 
        "minDepth": 10, 
        "itemType": {"hard armor": "all"}, 
        "affixLevel": "good"
      }, 
      {
        "commonness": 20, 
        "maxDepth": 76, 
        "minDepth": 6, 
        "itemType": {"hafted": "all", "polearm": "all", "sword": "all"},
        "affixLevel": "good"
      }, 
      {
        "commonness": 10, 
        "maxDepth": -1, 
        "minDepth": 45, 
        "itemType": {"crown": "all"}, 
        "affixLevel": "good"
      }
    ]
  }, 
  {
    "index": 135, 
    "stats": {
      "baseArmor": "20%", 
      "weightMod": "-25%", 
      "numDice": "2"
    }, 
    "description": "It is made from Dwarven mithril, durable and strong.", 
    "allocations": [
      {
        "commonness": 10, 
        "maxDepth": -1, 
        "minDepth": 55, 
        "itemType": {"hard armor": "all"}, 
        "affixLevel": "good"
      }, 
      {
        "commonness": 20, 
        "minDepth": 60, 
        "itemType": {"boots": ["& Pair~ of Greaves", "& Pair~ of Hard Boots"]},
        "affixLevel": "good", 
        "maxDepth": -1
      }, 
      {
        "commonness": 20, 
        "maxDepth": -1, 
        "minDepth": 50, 
        "itemType": {"arrow": "all"}, 
        "affixLevel": "great"
      }, 
      {
        "commonness": 20, 
        "maxDepth": -1, 
        "minDepth": 60, 
        "itemType": {"bolt": "all"}, 
        "affixLevel": "great"
      }, 
      {
        "commonness": 20, 
        "maxDepth": -1, 
        "minDepth": 40, 
        "itemType": {"shot": "all"}, 
        "affixLevel": "great"
      }
    ], 
    "name": "Mithril",
    "affixType": "material", 
    "position": "prefix",
    "genus": "Assured"
  }, 
  {
    "index": 136, 
    "stats": {
      "baseArmor": "40%", 
      "weightMod": "30%"
    }, 
    "description": "It is made from impenetrable metal; rigid and inflexible.", 
    "allocations": [
      {
        "commonness": 10, 
        "maxDepth": -1, 
        "minDepth": 75, 
        "itemType": {"hard armor": "all"}, 
        "affixLevel": "good"
      }
    ], 
    "name": "Adamantite",
    "affixType": "material",
    "position": "prefix",
    "genus": "Heavy"
  }, 
  {
    "index": 137, 
    "stats": {
      "baseArmor": "-10%", 
      "weightMod": "-50%"
    }, 
    "description": "It is made from the softest material.", 
    "allocations": [
      {
        "commonness": 20, 
        "minDepth": 10, 
        "itemType": {"soft armor": ["& Robe~", "& Jerkin~"]},
        "affixLevel": "average", 
        "maxDepth": -1
      }
    ], 
    "name": "Silk",
    "affixType": "material", 
    "position": "prefix",
    "genus": "Assured"
  }, 
  {
    "index": 138, 
    "stats": {
      "prowessBonus": "10d3", 
      "baseArmor": "10%", 
      "finesseBonus": "10d3", 
      "weightMod": "15%"
    }, 
    "description": "It is covered in bloody-looking spikes.", 
    "allocations": [
      {
        "commonness": 8, 
        "maxDepth": -1, 
        "minDepth": 15, 
        "itemType": {"soft armor": "all", "hard armor": "all"},
        "affixLevel": "great"
      }, 
      {
        "commonness": 10, 
        "maxDepth": -1, 
        "minDepth": 20, 
        "itemType": {"shield": "all"}, 
        "affixLevel": "great"
      }
    ], 
    "name": "Spiked",
    "affixType": "quality", 
    "position": "prefix",
    "genus": "Offensive"
  }, 
  {
    "index": 141, 
    "stats": {
      "prowessBonus": "M40", 
      "finesseBonus": "10d2M20", 
      "weightMod": "-10%"
    }, 
    "description": "It is lighter and more accurate than usual, favoured by wood-elf hunters.", 
    "allocations": [
      {
        "commonness": 20, 
        "maxDepth": -1, 
        "minDepth": 6, 
        "itemType": {"sword": "all"}, 
        "affixLevel": "good"
      }, 
      {
        "commonness": 15, 
        "minDepth": 20, 
        "itemType": {"bow": ["& Short Bow~", "& Long Bow~"]},
        "affixLevel": "good", 
        "maxDepth": -1
      }, 
      {
        "commonness": 10, 
        "maxDepth": -1, 
        "minDepth": 10, 
        "itemType": {"arrow": "all"}, 
        "affixLevel": "good"
      }
    ], 
    "name": "Elven",
    "affixType": "make", 
    "position": "prefix",
    "genus": "Assured"
  }, 
  {
    "index": 142, 
    "mods": [
      {
        "bonus": "1", 
        "minimum": "1", 
        "flags": [
          "TUNNEL"
        ]
      }
    ], 
    "stats": {
      "prowessBonus": "10+M30", 
      "weightMod": "10%", 
      "heft": 0.05
    }, 
    "description": "It is of dwarven make and seems to eat through rock.", 
    "allocations": [
      {
        "commonness": 25, 
        "maxDepth": -1, 
        "minDepth": 20, 
        "itemType": {"digger": "all"}, 
        "affixLevel": "good"
      }, 
      {
        "commonness": 20, 
        "maxDepth": 50, 
        "minDepth": 16, 
        "itemType": {"hafted": "all", "polearm": "all"},
        "affixLevel": "good"
      }, 
      {
        "commonness": 10, 
        "maxDepth": -1, 
        "minDepth": 51, 
        "itemType": {"hafted": "all", "polearm": "all"},
        "affixLevel": "average"
      }, 
      {
        "commonness": 5, 
        "maxDepth": -1, 
        "minDepth": 20, 
        "itemType": {"bolt": "all"}, 
        "affixLevel": "good"
      }
    ], 
    "name": "Dwarven",
    "affixType": "make", 
    "position": "prefix",
    "genus": "Assured"
  }, 
  {
    "index": 143, 
    "mods": [
      {
        "bonus": "2", 
        "minimum": "2", 
        "flags": [
          "TUNNEL"
        ]
      }
    ], 
    "stats": {
      "prowessBonus": "-10", 
      "weightMod": "-20%", 
      "heft": -0.05
    }, 
    "description": "It is of gnomish design, small but incredibly useful for digging.", 
    "allocations": [
      {
        "commonness": 5, 
        "maxDepth": 66, 
        "minDepth": 2, 
        "itemType": {"digger": "all"}, 
        "affixLevel": "average"
      }, 
      {
        "commonness": 20, 
        "maxDepth": 66, 
        "minDepth": 2, 
        "itemType": {"hafted": "all", "polearm": "all"},
        "affixLevel": "average"
      }
    ], 
    "name": "Gnomish",
    "affixType": "make", 
    "position": "prefix",
    "genus": "Assured"
  }, 
  {
    "index": 145, 
    "stats": {
      "prowessBonus": "10d2", 
      "balance": -0.1, 
      "finesseBonus": "-10d2", 
      "weightMod": "20%", 
      "dieSize": "2"
    }, 
    "description": "It is larger and clumsier than usual.", 
    "allocations": [
      {
        "commonness": 10, 
        "maxDepth": 50, 
        "minDepth": 26, 
        "itemType": {"hafted": "all"}, 
        "affixLevel": "great"
      }, 
      {
        "commonness": 10, 
        "maxDepth": -1, 
        "minDepth": 51, 
        "itemType": {"hafted": "all"}, 
        "affixLevel": "good"
      }
    ], 
    "name": "Trollish",
    "affixType": "make", 
    "position": "prefix",
    "genus": "Heavy"
  }, 
  {
    "index": 146, 
    "stats": {
      "balance": 0.1, 
      "finesseBonus": "10d2M20", 
      "weightMod": "-20%", 
      "heft": -0.1
    }, 
    "description": "It is smaller and less damaging than usual.", 
    "allocations": [
      {
        "commonness": 20, 
        "maxDepth": 56, 
        "minDepth": 6, 
        "itemType": {"hafted": "all", "polearm": "all", "sword": "all"},
        "affixLevel": "average"
      }
    ], 
    "name": "Hobbitish",
    "affixType": "make", 
    "position": "prefix",
    "genus": "Tiny"
  }, 
  {
    "index": 148, 
    "stats": {
      "prowessBonus": "M40", 
      "finesseBonus": "M40", 
      "dieSize": "1"
    }, 
    "description": "It is finely crafted for skilled warriors.", 
    "allocations": [
      {
        "commonness": 20, 
        "maxDepth": 75, 
        "minDepth": 26, 
        "itemType": {"hafted": "all", "polearm": "all", "sword": "all"},
        "affixLevel": "great"
      }, 
      {
        "commonness": 10, 
        "maxDepth": -1, 
        "minDepth": 76, 
        "itemType": {"hafted": "all", "polearm": "all", "sword": "all"},
        "affixLevel": "good"
      }
    ], 
    "name": "Dunadan",
    "affixType": "make", 
    "position": "prefix",
    "genus": "Assured"
  }, 
  {
    "index": 151, 
    "stats": {
      "dieSize": "-1", 
      "finesseBonus": "10d2", 
      "weightMod": "-30%", 
      "heft": -0.1
    }, 
    "description": "It is comically small in size.", 
    "allocations": [
      {
        "commonness": 20, 
        "maxDepth": 36, 
        "minDepth": 6, 
        "itemType": {"hafted": "all", "polearm": "all", "sword": "all"},
        "affixLevel": "average"
      }
    ], 
    "name": "Kobold",
    "affixType": "make", 
    "position": "prefix",
    "genus": "Tiny"
  }, 
  {
    "index": 152, 
    "mods": [
      {
        "bonus": "1", 
        "minimum": "1", 
        "flags": [
          "TUNNEL"
        ]
      }
    ], 
    "stats": {
      "prowessBonus": "M20", 
      "balance": -0.1, 
      "finesseBonus": "M30", 
      "weightMod": "20%", 
      "heft": 0.1
    }, 
    "description": "It is of orcish make.  It is heavy and unlikely to have ever seen daylight.", 
    "allocations": [
      {
        "commonness": 15, 
        "maxDepth": -1, 
        "minDepth": 10, 
        "itemType": {"digger": "all"}, 
        "affixLevel": "good"
      }, 
      {
        "commonness": 20, 
        "maxDepth": 86, 
        "minDepth": 6, 
        "itemType": {"hafted": "all", "polearm": "all", "sword": "all"},
        "affixLevel": "good"
      }
    ], 
    "name": "Orcish",
    "affixType": "make", 
    "position": "prefix",
    "genus": "Heavy"
  }, 
  {
    "index": 153, 
    "stats": {
      "balance": -0.25, 
      "numDice": "1", 
      "prowessBonus": "10d2M20", 
      "weightMod": "150%", 
      "finesseBonus": "-10d2", 
      "dieSize": "1"
    }, 
    "description": "It is tremendously large but clumsy to wield.", 
    "allocations": [
      {
        "commonness": 15, 
        "maxDepth": -1, 
        "minDepth": 36, 
        "itemType": {"digger": "all"}, 
        "affixLevel": "great"
      }, 
      {
        "commonness": 20, 
        "maxDepth": 75, 
        "minDepth": 36, 
        "itemType": {"hafted": "all", "polearm": "all", "sword": "all"},
        "affixLevel": "great"
      }, 
      {
        "commonness": 10, 
        "maxDepth": -1, 
        "minDepth": 76, 
        "itemType": {"hafted": "all", "polearm": "all", "sword": "all"},
        "affixLevel": "good"
      }, 
      {
        "commonness": 5, 
        "maxDepth": -1, 
        "minDepth": 15, 
        "itemType": {"shot": "all"}, 
        "affixLevel": "great"
      }, 
      {
        "commonness": 5, 
        "maxDepth": -1, 
        "minDepth": 45, 
        "itemType": {"arrow": "all", "bolt": "all"},
        "affixLevel": "great"
      }
    ], 
    "name": "Giant",
    "affixType": "make", 
    "position": "prefix",
    "genus": "Heavy"
  }, 
  {
    "index": 154, 
    "stats": {
      "prowessBonus": "-10d3", 
      "finesseBonus": "-10d5", 
      "weightMod": "-50%"
    }, 
    "description": "It has been discarded for junk.", 
    "allocations": [
      {
        "commonness": 20, 
        "maxDepth": 36, 
        "minDepth": 1, 
        "itemType": {"hafted": "all", "polearm": "all", "sword": "all"},
        "affixLevel": "bad"
      }, 
      {
        "commonness": 10, 
        "maxDepth": 40, 
        "minDepth": 1, 
        "itemType": {"shot": "all", "bolt": "all"},
        "affixLevel": "bad"
      }, 
      {
        "commonness": 18, 
        "maxDepth": 40, 
        "minDepth": 1, 
        "itemType": {"arrow": "all"}, 
        "affixLevel": "bad"
      }
    ], 
    "name": "Broken",
    "affixType": "quality", 
    "position": "prefix",
    "genus": "Poor"
  }, 
  {
    "index": 156, 
    "stats": {
      "balance": -0.1, 
      "finesseBonus": "-20", 
      "heft": -0.1
    }, 
    "description": "It is not meant for actual combat.", 
    "allocations": [
      {
        "commonness": 20, 
        "maxDepth": 66, 
        "minDepth": 1, 
        "itemType": {"hafted": "all", "polearm": "all", "sword": "all"},
        "affixLevel": "bad"
      }, 
      {
        "commonness": 15, 
        "maxDepth": 66, 
        "minDepth": 1, 
        "itemType": {"bow": "all"}, 
        "affixLevel": "bad"
      }, 
      {
        "commonness": 18, 
        "maxDepth": 66, 
        "minDepth": 1, 
        "itemType": {"shot": "all", "arrow": "all", "bolt": "all"},
        "affixLevel": "bad"
      }
    ], 
    "name": "Cheap",
    "affixType": "quality", 
    "position": "prefix",
    "genus": "Poor"
  }, 
  {
    "index": 157, 
    "stats": {
      "dieSize": "-1", 
      "finesseBonus": "-10", 
      "weightMod": "10%"
    }, 
    "description": "It is better suited on a store display.", 
    "allocations": [
      {
        "commonness": 20, 
        "maxDepth": 46, 
        "minDepth": 6, 
        "itemType": {"hafted": "all", "polearm": "all", "sword": "all"}, 
        "affixLevel": "bad"
      }
    ], 
    "name": "Ornamental",
    "affixType": "quality", 
    "position": "prefix",
    "genus": "Poor"
  }, 
  {
    "index": 158, 
    "stats": {
      "balance": 0.05, 
      "finesseBonus": "20d3M30"
    }, 
    "description": "It provides the wielder with accurate blows.", 
    "allocations": [
      {
        "commonness": 20, 
        "maxDepth": -1, 
        "minDepth": 3, 
        "itemType": {"polearm": "all", "sword": "all"},
        "affixLevel": "good"
      }, 
      {
        "commonness": 15, 
        "minDepth": 10, 
        "itemType": {"bow": ["& Short Bow~", "& Long Bow~"]},
        "affixLevel": "good", 
        "maxDepth": -1
      }, 
      {
        "commonness": 18, 
        "maxDepth": -1, 
        "minDepth": 25, 
        "itemType": {"arrow": "all"}, 
        "affixLevel": "good"
      }
    ], 
    "name": "Hunter's",
    "affixType": "make", 
    "position": "prefix",
    "genus": "Assured"
  }, 
  {
    "index": 159, 
    "mods": [
      {
        "bonus": "25+d25", 
        "minimum": "25", 
        "flags": [
          "BRAND_POIS"
        ]
      }
    ], 
    "allocations": [
      {
        "commonness": 20, 
        "maxDepth": 55, 
        "minDepth": 6, 
        "itemType": {"polearm": "all", "sword": "all"},
        "affixLevel": "great"
      }, 
      {
        "commonness": 10, 
        "maxDepth": -1, 
        "minDepth": 56, 
        "itemType": {"polearm": "all", "sword": "all"},
        "affixLevel": "good"
      }, 
      {
        "commonness": 10, 
        "maxDepth": 60, 
        "minDepth": 1, 
        "itemType": {"arrow": "all"}, 
        "affixLevel": "good"
      }
    ], 
    "name": "Forester's", 
    "position": "prefix",
    "affixType": "make",
    "genus": "Offensive"
  }, 
  {
    "index": 160, 
    "stats": {
      "prowessBonus": "10+M80", 
      "finesseBonus": "10+M80", 
      "heft": 0.05
    }, 
    "description": "It is well-designed for combat.", 
    "allocations": [
      {
        "commonness": 20, 
        "maxDepth": -1, 
        "minDepth": 6, 
        "itemType": {"hafted": "all", "polearm": "all", "sword": "all"},
        "affixLevel": "good"
      }, 
      {
        "commonness": 15, 
        "maxDepth": -1, 
        "minDepth": 6, 
        "itemType": {"bow": "all"}, 
        "affixLevel": "good"
      }, 
      {
        "commonness": 15, 
        "maxDepth": -1, 
        "minDepth": 10, 
        "itemType": {"shot": "all", "arrow": "all", "bolt": "all"},
        "affixLevel": "good"
      }
    ], 
    "name": "Journeyman's",
    "affixType": "quality", 
    "position": "prefix",
    "genus": "Assured"
  }, 
  {
    "index": 161, 
    "stats": {
      "prowessBonus": "10+10d2M20", 
      "finesseBonus": "30+10d3M30", 
      "dieSize": "1"
    }, 
    "description": "It is significantly more powerful than usual.", 
    "allocations": [
      {
        "commonness": 20, 
        "maxDepth": -1, 
        "minDepth": 25, 
        "itemType": {"hafted": "all", "polearm": "all", "sword": "all"},
        "affixLevel": "great"
      }, 
      {
        "commonness": 15, 
        "maxDepth": -1, 
        "minDepth": 25, 
        "itemType": {"shot": "all", "arrow": "all", "bolt": "all"},
        "affixLevel": "great"
      }
    ], 
    "name": "Runed",
    "affixType": "quality", 
    "position": "prefix",
    "genus": "Assured"
  }, 
  {
    "index": 162, 
    "stats": {
      "prowessBonus": "10d2M40", 
      "finesseBonus": "10d2M40", 
      "weightMod": "20%", 
      "dieSize": "2"
    }, 
    "description": "It may be the most powerful of its kind.", 
    "allocations": [
      {
        "commonness": 10, 
        "maxDepth": -1, 
        "minDepth": 56, 
        "itemType": {"hafted": "all", "polearm": "all", "sword": "all"},
        "affixLevel": "uber"
      }, 
      {
        "commonness": 10, 
        "maxDepth": -1, 
        "minDepth": 61, 
        "itemType": {"shot": "all", "arrow": "all", "bolt": "all"},
        "affixLevel": "uber"
      }
    ], 
    "name": "Majestic",
    "affixType": "quality", 
    "position": "prefix",
    "genus": "Assured"
  }, 
  {
    "index": 163, 
    "stats": {
      "prowessBonus": "10d2", 
      "weightMod": "-10%"
    }, 
    "description": "It is made from animal skeletons.", 
    "allocations": [
      {
        "commonness": 20, 
        "minDepth": 6, 
        "itemType": {"hafted": ["& Mace~", "& Club~", "& Quarterstaff~", "& War Hammer~", "& Maul~", "& Great Hammer~"]},
        "affixLevel": "good", 
        "maxDepth": 55
      }, 
      {
        "commonness": 20, 
        "minDepth": 56, 
        "itemType": {"hafted": ["& Mace~", "& Club~", "& Quarterstaff~", "& War Hammer~", "& Maul~", "& Great Hammer~"]},
        "affixLevel": "average", 
        "maxDepth": -1
      }
    ], 
    "name": "Bone",
    "affixType": "material", 
    "position": "prefix",
    "genus": "Offensive"
  }, 
  {
    "index": 164, 
    "stats": {
      "prowessBonus": "M40", 
      "weightMod": "10%", 
      "balance": -0.05
    }, 
    "description": "It is made from solid granite.", 
    "allocations": [
      {
        "commonness": 20, 
        "minDepth": 6, 
        "itemType": {"hafted": ["& Mace~", "& Club~", "& Quarterstaff~", "& War Hammer~", "& Maul~", "& Great Hammer~"]},
        "affixLevel": "good", 
        "maxDepth": 65
      }, 
      {
        "commonness": 20, 
        "minDepth": 66, 
        "itemType": {"hafted": ["& Mace~", "& Club~", "& Quarterstaff~", "& War Hammer~", "& Maul~", "& Great Hammer~"]},
        "affixLevel": "average", 
        "maxDepth": -1
      }
    ], 
    "name": "Stone",
    "affixType": "material", 
    "position": "prefix",
    "genus": "Heavy"
  }, 
  {
    "index": 165, 
    "stats": {
      "balance": -0.1, 
      "numDice": "2", 
      "prowessBonus": "10d3M30", 
      "weightMod": "50%", 
      "heft": 0.05, 
      "dieSize": "-1"
    }, 
    "description": "It is much heavier than normal.", 
    "allocations": [
      {
        "commonness": 20, 
        "minDepth": 6, 
        "itemType": {"hafted": ["& Mace~", "& Club~", "& Quarterstaff~", "& War Hammer~", "& Maul~", "& Great Hammer~"]},
        "affixLevel": "good", 
        "maxDepth": -1
      }
    ], 
    "name": "Lead-Filled",
    "affixType": "material", 
    "position": "prefix",
    "genus": "Heavy"
  }, 
  {
    "index": 166, 
    "stats": {
      "dieSize": "1", 
      "balance": -0.05, 
      "prowessBonus": "M30"
    }, 
    "description": "It is made from the bones of dragons.", 
    "allocations": [
      {
        "commonness": 10, 
        "minDepth": 16, 
        "itemType": {"hafted": ["& Mace~", "& Club~", "& Quarterstaff~", "& War Hammer~", "& Maul~", "& Great Hammer~"]},
        "affixLevel": "good", 
        "maxDepth": -1
      }, 
      {
        "commonness": 10, 
        "maxDepth": -1, 
        "minDepth": 16, 
        "itemType": {"arrow": "all", "bolt": "all"},
        "affixLevel": "good"
      }
    ], 
    "name": "Dragonbone",
    "affixType": "material", 
    "position": "prefix",
    "genus": "Offensive"
  }, 
  {
    "index": 167, 
    "mods": [
      {
        "bonus": "25+d25", 
        "minimum": "25", 
        "flags": [
          "SLAY_DEMON"
        ]
      }
    ], 
    "allocations": [
      {
        "commonness": 20, 
        "maxDepth": 55, 
        "minDepth": 6, 
        "itemType": {"polearm": "all", "sword": "all", "hafted": ["& Mace~", "& Club~", "& Quarterstaff~", "& War Hammer~", "& Maul~", "& Great Hammer~"]},
        "affixLevel": "good"
      }, 
      {
        "commonness": 10, 
        "maxDepth": 76, 
        "minDepth": 56, 
        "itemType": {"polearm": "all", "sword": "all", "hafted": ["& Mace~", "& Club~", "& Quarterstaff~", "& War Hammer~", "& Maul~", "& Great Hammer~"]},
        "affixLevel": "average"
      }, 
      {
        "commonness": 10, 
        "maxDepth": -1, 
        "minDepth": 1, 
        "itemType": {"shot": "all", "arrow": "all", "bolt": "all"},
        "affixLevel": "good"
      }
    ], 
    "name": "Iron", 
    "position": "prefix",
    "affixType": "material",
    "genus": "Holy"
  }, 
  {
    "index": 168, 
    "mods": [
      {
        "bonus": "25+d25", 
        "minimum": "25", 
        "flags": [
          "SLAY_UNDEAD"
        ]
      }
    ], 
    "allocations": [
      {
        "commonness": 20, 
        "maxDepth": 55, 
        "minDepth": 6, 
        "itemType": {"polearm": "all", "sword": "all", "hafted": ["& Mace~", "& Club~", "& Quarterstaff~", "& War Hammer~", "& Maul~", "& Great Hammer~"]},
        "affixLevel": "good"
      }, 
      {
        "commonness": 10, 
        "maxDepth": 76, 
        "minDepth": 56, 
        "itemType": {"polearm": "all", "sword": "all", "hafted": ["& Mace~", "& Club~", "& Quarterstaff~", "& War Hammer~", "& Maul~", "& Great Hammer~"]},
        "affixLevel": "average"
      }, 
      {
        "commonness": 10, 
        "maxDepth": -1, 
        "minDepth": 1, 
        "itemType": {"shot": "all", "arrow": "all", "bolt": "all"},
        "affixLevel": "good"
      }
    ], 
    "name": "Silver", 
    "position": "prefix",
    "affixType": "material",
    "genus": "Holy"
  }, 
  {
    "index": 170, 
    "stats": {
      "prowessBonus": "20+10d3M40", 
      "balance": -0.05, 
      "finesseBonus": "10d2M20", 
      "heft": 0.1
    }, 
    "description": "It is made from the toughest rock.", 
    "allocations": [
      {
        "commonness": 30, 
        "maxDepth": -1, 
        "minDepth": 16, 
        "itemType": {"polearm": "all", "sword": "all", "hafted": ["& Mace~", "& Club~", "& Quarterstaff~", "& War Hammer~", "& Maul~", "& Great Hammer~"]},
        "affixLevel": "good"
      }, 
      {
        "commonness": 15, 
        "maxDepth": -1, 
        "minDepth": 15, 
        "itemType": {"shot": "all", "arrow": "all", "bolt": "all"},
        "affixLevel": "good"
      }
    ], 
    "name": "Crystal",
    "affixType": "material", 
    "position": "prefix",
    "genus": "Offensive"
  }, 
  {
    "index": 171, 
    "mods": [
      {
        "bonus": "25+d25", 
        "minimum": "25", 
        "flags": [
          "BRAND_ACID"
        ]
      }
    ], 
    "allocations": [
      {
        "commonness": 20, 
        "maxDepth": 55, 
        "minDepth": 6, 
        "itemType": {"polearm": "all", "sword": "all", "hafted": ["& Mace~", "& Club~", "& Quarterstaff~", "& War Hammer~", "& Maul~", "& Great Hammer~"]},
        "affixLevel": "great"
      }, 
      {
        "commonness": 10, 
        "maxDepth": -1, 
        "minDepth": 56, 
        "itemType": {"polearm": "all", "sword": "all", "hafted": ["& Mace~", "& Club~", "& Quarterstaff~", "& War Hammer~", "& Maul~", "& Great Hammer~"]},
        "affixLevel": "good"
      }, 
      {
        "commonness": 10, 
        "maxDepth": -1, 
        "minDepth": 45, 
        "itemType": {"shot": "all", "arrow": "all", "bolt": "all"},
        "affixLevel": "great"
      }
    ], 
    "name": "Emerald", 
    "position": "prefix",
    "affixType": "material",
    "genus": "Elemental"
  }, 
  {
    "index": 172, 
    "mods": [
      {
        "bonus": "25+d25", 
        "minimum": "25", 
        "flags": [
          "BRAND_ELEC"
        ]
      }
    ], 
    "allocations": [
      {
        "commonness": 20, 
        "maxDepth": 55, 
        "minDepth": 6, 
        "itemType": {"polearm": "all", "sword": "all", "hafted": ["& Mace~", "& Club~", "& Quarterstaff~", "& War Hammer~", "& Maul~", "& Great Hammer~"]},
        "affixLevel": "great"
      }, 
      {
        "commonness": 10, 
        "maxDepth": -1, 
        "minDepth": 56, 
        "itemType": {"polearm": "all", "sword": "all", "hafted": ["& Mace~", "& Club~", "& Quarterstaff~", "& War Hammer~", "& Maul~", "& Great Hammer~"]},
        "affixLevel": "good"
      }, 
      {
        "commonness": 10, 
        "maxDepth": -1, 
        "minDepth": 45, 
        "itemType": {"shot": "all", "arrow": "all", "bolt": "all"},
        "affixLevel": "great"
      }
    ], 
    "name": "Topaz", 
    "position": "prefix",
    "affixType": "material",
    "genus": "Elemental"
  }, 
  {
    "index": 173, 
    "mods": [
      {
        "bonus": "25+d25", 
        "minimum": "25", 
        "flags": [
          "BRAND_FIRE"
        ]
      }
    ], 
    "allocations": [
      {
        "commonness": 20, 
        "maxDepth": 55, 
        "minDepth": 6, 
        "itemType": {"polearm": "all", "sword": "all", "hafted": ["& Mace~", "& Club~", "& Quarterstaff~", "& War Hammer~", "& Maul~", "& Great Hammer~"]},
        "affixLevel": "great"
      }, 
      {
        "commonness": 10, 
        "maxDepth": -1, 
        "minDepth": 56, 
        "itemType": {"polearm": "all", "sword": "all", "hafted": ["& Mace~", "& Club~", "& Quarterstaff~", "& War Hammer~", "& Maul~", "& Great Hammer~"]},
        "affixLevel": "good"
      },
      {
        "commonness": 10, 
        "maxDepth": -1, 
        "minDepth": 45, 
        "itemType": {"shot": "all", "arrow": "all", "bolt": "all"},
        "affixLevel": "great"
      }
    ], 
    "name": "Ruby", 
    "position": "prefix",
    "affixType": "material",
    "genus": "Elemental"
  }, 
  {
    "index": 174, 
    "mods": [
      {
        "bonus": "25+d25", 
        "minimum": "25", 
        "flags": [
          "BRAND_COLD"
        ]
      }
    ], 
    "allocations": [
      {
        "commonness": 20, 
        "maxDepth": 55, 
        "minDepth": 6, 
        "itemType": {"polearm": "all", "sword": "all", "hafted": ["& Mace~", "& Club~", "& Quarterstaff~", "& War Hammer~", "& Maul~", "& Great Hammer~"]},
        "affixLevel": "great"
      }, 
      {
        "commonness": 10, 
        "maxDepth": -1, 
        "minDepth": 56, 
        "itemType": {"polearm": "all", "sword": "all", "hafted": ["& Mace~", "& Club~", "& Quarterstaff~", "& War Hammer~", "& Maul~", "& Great Hammer~"]},
        "affixLevel": "good"
      }, 
      {
        "commonness": 10, 
        "maxDepth": -1, 
        "minDepth": 45, 
        "itemType": {"shot": "all", "arrow": "all", "bolt": "all"},
        "affixLevel": "great"
      }
    ], 
    "name": "Sapphire", 
    "position": "prefix",
    "affixType": "material",
    "genus": "Elemental"
  }, 
  {
    "index": 175, 
    "stats": {
      "prowessBonus": "20+10d3M40", 
      "balance": -0.05, 
      "finesseBonus": "10d2M30", 
      "heft": 0.05
    }, 
    "allocations": [
      {
        "commonness": 30, 
        "maxDepth": -1, 
        "minDepth": 26, 
        "itemType": {"polearm": "all", "sword": "all", "hafted": ["& Mace~", "& Club~", "& Quarterstaff~", "& War Hammer~", "& Maul~", "& Great Hammer~"]},
        "affixLevel": "good"
      }, 
      {
        "commonness": 10, 
        "maxDepth": -1, 
        "minDepth": 25, 
        "itemType": {"shot": "all", "arrow": "all", "bolt": "all"},
        "affixLevel": "good"
      }
    ], 
    "name": "Diamond", 
    "position": "prefix",
    "affixType": "material",
    "genus": "Offensive"
  }, 
  {
    "index": 176, 
    "stats": {
      "prowessBonus": "20+10d3M30", 
      "balance": -0.1, 
      "finesseBonus": "10d2M20", 
      "weightMod": "75%", 
      "heft": 0.1
    }, 
    "description": "It is made from heavy sharpened stone.", 
    "allocations": [
      {
        "commonness": 20, 
        "maxDepth": 66, 
        "minDepth": 10, 
        "itemType": {"polearm": "all", "sword": "all", "hafted": ["& Mace~", "& Club~", "& Quarterstaff~", "& War Hammer~", "& Maul~", "& Great Hammer~"]},
        "affixLevel": "good"
      }, 
      {
        "commonness": 15, 
        "minDepth": 10, 
        "itemType": {"bow": ["all except", "& Sling~"]},
        "affixLevel": "good", 
        "maxDepth": 67
      }, 
      {
        "commonness": 15, 
        "maxDepth": 66, 
        "minDepth": 10, 
        "itemType": {"shot": "all", "arrow": "all", "bolt": "all"},
        "affixLevel": "good"
      }
    ], 
    "name": "Blackrock",
    "affixType": "material", 
    "position": "prefix",
    "genus": "Heavy"
  }, 
  {
    "index": 177, 
    "stats": {
      "prowessBonus": "10+10d3M40", 
      "finesseBonus": "M60"
    }, 
    "description": "It is much sharper than usual.", 
    "allocations": [
      {
        "commonness": 50, 
        "maxDepth": -1, 
        "minDepth": 1, 
        "itemType": {"polearm": "all", "sword": "all"},
        "affixLevel": "good"
      }, 
      {
        "commonness": 35, 
        "maxDepth": -1, 
        "minDepth": 1, 
        "itemType": {"arrow": "all"}, 
        "affixLevel": "good"
      }
    ],
    "conflicts": "Rusty",
    "name": "Sharp",
    "affixType": "quality", 
    "position": "prefix",
    "genus": "Offensive"
  }, 
  {
    "index": 178, 
    "stats": {
      "prowessBonus": "20+10d4M60", 
      "balance": 0.05, 
      "finesseBonus": "M90"
    }, 
    "description": "It is incredibly sharp to the touch.", 
    "allocations": [
      {
        "commonness": 30, 
        "maxDepth": -1, 
        "minDepth": 21, 
        "itemType": {"polearm": "all", "sword": "all"},
        "affixLevel": "great"
      }, 
      {
        "commonness": 25, 
        "maxDepth": -1, 
        "minDepth": 21, 
        "itemType": {"arrow": "all"}, 
        "affixLevel": "great"
      }
    ], 
    "conflicts": "Rusty",
    "name": "Keen",
    "affixType": "quality", 
    "position": "prefix",
    "genus": "Offensive"
  }, 
  {
    "index": 179, 
    "stats": {
      "prowessBonus": "10+10d3M40", 
      "finesseBonus": "M60"
    }, 
    "description": "It is more damaging than usual.", 
    "allocations": [
      {
        "commonness": 50, 
        "maxDepth": -1, 
        "minDepth": 1, 
        "itemType": {"hafted": "all", "digger": "all"},
        "affixLevel": "good"
      }
    ], 
    "name": "Vicious",
    "affixType": "quality",
    "position": "prefix",
    "genus": "Offensive"
  },
  {
    "index": 180, 
    "stats": {
      "prowessBonus": "20+10d4M60", 
      "finesseBonus": "M90", 
      "heft": 0.05
    }, 
    "description": "It is much more damaging than usual.", 
    "allocations": [
      {
        "commonness": 30, 
        "maxDepth": -1, 
        "minDepth": 21, 
        "itemType": {"hafted": "all", "digger": "all"},
        "affixLevel": "great"
      }
    ], 
    "name": "Brutal",
    "affixType": "quality", 
    "position": "prefix",
    "genus": "Offensive"
  }, 
  {
    "index": 181, 
    "flags": [
      "IGNORE_ACID", 
      "IGNORE_FIRE", 
      "IGNORE_ELEC", 
      "IGNORE_COLD"
    ], 
    "allocations": [
      {
        "commonness": 10, 
        "maxDepth": -1, 
        "minDepth": 1, 
        "itemType": {"shot": "all", "arrow": "all", "bolt": "all"},
        "affixLevel": "good"
      }, 
      {
        "commonness": 10, 
        "maxDepth": 50, 
        "minDepth": 1, 
        "itemType": {"shield": "all", "cloak": "all", "boots": "all", "soft armor": "all", "hard armor": "all"},
        "affixLevel": "good"
      }, 
      {
        "commonness": 10, 
        "maxDepth": -1, 
        "minDepth": 51, 
        "itemType": {"shield": "all", "cloak": "all", "boots": "all", "soft armor": "all", "hard armor": "all"},
        "affixLevel": "average"
      }
    ], 
    "name": "of Durability",
    "affixType": "elemental",
    "position": "suffix",
    "genus": "of the Elements"
  }, 
  {
    "index": 182, 
    "randoms": [
      {
        "number": 1, 
        "flag types": [
          "HRES"
        ]
      }
    ], 
    "allocations": [
      {
        "commonness": 10, 
        "maxDepth": -1, 
        "minDepth": 1, 
        "itemType": {"shield": "all", "cloak": "all", "soft armor": "all", "hard armor": "all"},
        "affixLevel": "uber"
      }
    ], 
    "name": "of Warding",
    "affixType": "arcane",
    "position": "suffix",
    "genus": "of the Elements"
  }, 
  {
    "index": 183, 
    "mods": [
      {
        "bonus": "d2", 
        "minimum": "1", 
        "flags": [
          "STR"
        ]
      }
    ], 
    "allocations": [
      {
        "commonness": 10, 
        "maxDepth": -1, 
        "minDepth": 11, 
        "itemType": {"soft armor": "all", "hard armor": "all"},
        "affixLevel": "uber"
      }, 
      {
        "commonness": 10, 
        "maxDepth": -1, 
        "minDepth": 11, 
        "itemType": {"polearm": "all", "hafted": "all", "sword": "all"},
        "affixLevel": "great"
      }, 
      {
        "commonness": 12, 
        "maxDepth": -1, 
        "minDepth": 30, 
        "itemType": {"gloves": "all"}, 
        "affixLevel": "great"
      }, 
      {
        "commonness": 5, 
        "maxDepth": -1, 
        "minDepth": 45, 
        "itemType": {"crown": "all"}, 
        "affixLevel": "uber"
      }
    ], 
    "name": "of Strength",
    "affixType": "physical",
    "position": "suffix",
    "genus": "of the Body"
  }, 
  {
    "index": 184, 
    "mods": [
      {
        "bonus": "d2", 
        "minimum": "1", 
        "flags": [
          "CON"
        ]
      }
    ], 
    "allocations": [
      {
        "commonness": 10, 
        "maxDepth": -1, 
        "minDepth": 11, 
        "itemType": {"soft armor": "all", "hard armor": "all"},
        "affixLevel": "uber"
      }, 
      {
        "commonness": 5, 
        "maxDepth": -1, 
        "minDepth": 45, 
        "itemType": {"crown": "all"}, 
        "affixLevel": "uber"
      }, 
      {
        "commonness": 12, 
        "maxDepth": -1, 
        "minDepth": 50, 
        "itemType": {"gloves": "all"}, 
        "affixLevel": "uber"
      }
    ], 
    "name": "of Hardiness",
    "affixType": "physical",
    "position": "suffix",
    "genus": "of the Body"
  }, 
  {
    "index": 185, 
    "flags": [
      "HOLD_LIFE"
    ], 
    "allocations": [
      {
        "commonness": 10, 
        "maxDepth": -1, 
        "minDepth": 11, 
        "itemType": {"soft armor": "all", "hard armor": "all"},
        "affixLevel": "uber"
      }, 
      {
        "commonness": 10, 
        "maxDepth": -1, 
        "minDepth": 51, 
        "itemType": {"shield": "all"}, 
        "affixLevel": "uber"
      }
    ], 
    "name": "of Vitality",
    "affixType": "mental",
    "position": "suffix",
    "genus": "of the Mind"
  }, 
  {
    "index": 186, 
    "flags": [
      "RES_DISEN"
    ], 
    "allocations": [
      {
        "commonness": 10, 
        "maxDepth": -1, 
        "minDepth": 70, 
        "itemType": {"soft armor": "all", "hard armor": "all", "shield": "all"},
        "affixLevel": "uber"
      }
    ], 
    "name": "of Arcana",
    "affixType": "arcane",
    "position": "suffix",
    "genus": "of the Elements"
  }, 
  {
    "index": 187, 
    "flags": [
      "SUST_STR", 
      "SUST_DEX", 
      "SUST_CON"
    ], 
    "allocations": [
      {
        "commonness": 10, 
        "maxDepth": -1, 
        "minDepth": 45, 
        "itemType": {"crown": "all"}, 
        "affixLevel": "great"
      }, 
      {
        "commonness": 10, 
        "minDepth": 50, 
        "itemType": {"soft armor": "& Robe~"}, 
        "affixLevel": "uber", 
        "maxDepth": -1
      }, 
      {
        "commonness": 10, 
        "maxDepth": -1, 
        "minDepth": 51, 
        "itemType": {"shield": "all"}, 
        "affixLevel": "uber"
      }
    ], 
    "name": "of Bodykeeping",
    "affixType": "physical",
    "position": "suffix",
    "genus": "of the Body"
  }, 
  {
    "index": 188, 
    "flags": [
      "SUST_INT", 
      "SUST_WIS", 
      "SUST_CHR"
    ], 
    "allocations": [
      {
        "commonness": 10, 
        "maxDepth": -1, 
        "minDepth": 45, 
        "itemType": {"crown": "all"}, 
        "affixLevel": "great"
      }, 
      {
        "commonness": 10, 
        "minDepth": 50, 
        "itemType": {"soft armor": "& Robe~"}, 
        "affixLevel": "uber", 
        "maxDepth": -1
      }
    ], 
    "name": "of Soulkeeping",
    "affixType": "mental",
    "position": "suffix",
    "genus": "of the Mind"
  }, 
  {
    "index": 189, 
    "flags": [
      "RES_FEAR"
    ], 
    "allocations": [
      {
        "commonness": 10, 
        "maxDepth": -1, 
        "minDepth": 15, 
        "itemType": {"crown": "all", "helm": "all"},
        "affixLevel": "great"
      }, 
      {
        "commonness": 10, 
        "maxDepth": 55, 
        "minDepth": 11, 
        "itemType": {"polearm": "all", "hafted": "all", "sword": "all"},
        "affixLevel": "great"
      }, 
      {
        "commonness": 10, 
        "maxDepth": -1, 
        "minDepth": 56, 
        "itemType": {"polearm": "all", "hafted": "all", "sword": "all"},
        "affixLevel": "good"
      }
    ], 
    "name": "of Bravery",
    "affixType": "mental",
    "position": "suffix",
    "genus": "of the Warrior"
  }, 
  {
    "index": 190, 
    "flags": [
      "RES_SOUND"
    ], 
    "allocations": [
      {
        "commonness": 10, 
        "maxDepth": -1, 
        "minDepth": 50, 
        "itemType": {"crown": "all", "helm": "all"},
        "affixLevel": "great"
      }
    ], 
    "name": "of Silence",
    "affixType": "arcane",
    "position": "suffix",
    "genus": "of the Elements"
  }, 
  {
    "index": 191, 
    "flags": [
      "RES_STUN"
    ], 
    "allocations": [
      {
        "commonness": 10, 
        "maxDepth": -1, 
        "minDepth": 40, 
        "itemType": {"crown": "all", "helm": "all"},
        "affixLevel": "great"
      }
    ], 
    "name": "of Fortitude",
    "affixType": "physical",
    "position": "suffix",
    "genus": "of the Body"
  }, 
  {
    "index": 192, 
    "flags": [
      "RES_CONFU"
    ], 
    "allocations": [
      {
        "commonness": 10, 
        "maxDepth": -1, 
        "minDepth": 50, 
        "itemType": {"crown": "all", "helm": "all"},
        "affixLevel": "great"
      }
    ], 
    "name": "of Certainty",
    "affixType": "mental",
    "position": "suffix",
    "genus": "of the Mind"
  }, 
  {
    "index": 193, 
    "flags": [
      "RES_DARK"
    ], 
    "allocations": [
      {
        "commonness": 10, 
        "maxDepth": -1, 
        "minDepth": 35, 
        "itemType": {"crown": "all", "helm": "all"},
        "affixLevel": "great"
      }
    ], 
    "name": "of Darkness",
    "affixType": "arcane",
    "position": "suffix",
    "genus": "of the Elements"
  }, 
  {
    "index": 194, 
    "mods": [
      {
        "bonus": "d3", 
        "minimum": "0", 
        "flags": [
          "SEARCH"
        ]
      }
    ], 
    "allocations": [
      {
        "commonness": 10, 
        "maxDepth": 50, 
        "minDepth": 15, 
        "itemType": {"crown": "all", "helm": "all", "gloves": "all"},
        "affixLevel": "good"
      }, 
      {
        "commonness": 10, 
        "maxDepth": -1, 
        "minDepth": 51, 
        "itemType": {"crown": "all", "helm": "all", "gloves": "all"},
        "affixLevel": "average"
      }
    ], 
    "name": "of Searching",
    "affixType": "mental",
    "position": "suffix",
    "genus": "of Detection"
  }, 
  {
    "index": 195, 
    "flags": [
      "RES_NEXUS"
    ], 
    "allocations": [
      {
        "commonness": 16, 
        "maxDepth": -1, 
        "minDepth": 15, 
        "itemType": {"boots": "all"}, 
        "affixLevel": "great"
      }
    ], 
    "name": "of Stability",
    "affixType": "arcane",
    "position": "suffix",
    "genus": "of the Elements"
  }, 
  {
    "index": 196, 
    "stats": {
      "armorBonus": "d6M6", 
      "heft": -0.05
    }, 
    "description": "It is designed with an eye towards defense.", 
    "allocations": [
      {
        "commonness": 10, 
        "maxDepth": 50, 
        "minDepth": 1, 
        "itemType": {"polearm": "all", "hafted": "all", "sword": "all"},
        "affixLevel": "good"
      }, 
      {
        "commonness": 10, 
        "maxDepth": -1, 
        "minDepth": 51, 
        "itemType": {"polearm": "all", "hafted": "all", "sword": "all"},
        "affixLevel": "average"
      }
    ], 
    "name": "of Parrying",
    "affixType": "combat",
    "position": "suffix",
    "genus": "of the Rogue"
  }, 
  {
    "index": 197, 
    "stats": {
      "balance": -0.1, 
      "numDice": "3", 
      "prowessBonus": "10d2M80", 
      "heft": 0.05, 
      "finesseBonus": "10d2M80", 
      "dieSize": "1"
    }, 
    "allocations": [
      {
        "commonness": 10, 
        "minDepth": 60, 
        "itemType": {"polearm": "& Scythe~"}, 
        "affixLevel": "uber", 
        "maxDepth": -1 
      }
    ], 
    "name": "of Slicing",
    "affixType": "combat",
    "position": "suffix",
    "genus": "of Devastation"
  }, 
  {
    "index": 198, 
    "stats": {
      "prowessBonus": "10d2M80", 
      "balance": -0.05, 
      "finesseBonus": "10d2M80", 
      "heft": -0.05, 
      "numDice": "2"
    }, 
    "name": "of Chaos",
    "affixType": "combat",
    "position": "suffix",
    "genus": "of Devastation",
    "flags": [
      "RES_CHAOS"
    ], 
    "allocations": [
      {
        "commonness": 10, 
        "minDepth": 70, 
        "itemType": {"sword": ["& Katana~", "& Zweihander~", "& Executioner's Sword~"]},
        "affixLevel": "uber", 
        "maxDepth": -1
      }
    ]
  }, 
  {
    "index": 207, 
    "mods": [
      {
        "bonus": "200", 
        "minimum": "200", 
        "flags": [
          "SLAY_UNDEAD"
        ]
      }
    ], 
    "stats": {
      "balance": -0.2, 
      "numDice": "3", 
      "prowessBonus": "10d2M80", 
      "weightMod": "233%", 
      "heft": 0.15, 
      "finesseBonus": "10d2M80", 
      "dieSize": "4"
    }, 
    "name": "of Disruption",
    "affixType": "combat", 
    "position": "suffix",
    "genus": "of Devastation",
    "allocations": [
      {
        "commonness": 10, 
        "maxDepth": -1, 
        "minDepth": 70, 
        "itemType": {"hafted": "all"}, 
        "affixLevel": "uber"
      }
    ]
  }, 
  {
    "index": 199, 
    "stats": {
      "armorBonus": "1+d2M3"
    }, 
    "description": "It is made of harder materials than usual.", 
    "allocations": [
      {
        "commonness": 50, 
        "maxDepth": -1, 
        "minDepth": 1, 
        "itemType": {"soft armor": "all", "hard armor": "all", "shield": "all", "cloak": "all", "gloves": "all", "boots": "all", "helm": "all"},
        "affixLevel": "good"
      }
    ], 
    "name": "Tough",
    "affixType": "quality", 
    "position": "prefix",
    "genus": "Assured"
  }, 
  {
    "index": 200, 
    "stats": {
      "armorBonus": "2+d3M5"
    }, 
    "description": "It is double-layered for extra strength.", 
    "allocations": [
      {
        "commonness": 30, 
        "maxDepth": -1, 
        "minDepth": 21, 
        "itemType": {"soft armor": "all", "hard armor": "all", "shield": "all", "cloak": "all", "gloves": "all", "boots": "all", "helm": "all"},
        "affixLevel": "great"
      }
    ], 
    "name": "Reinforced",
    "affixType": "quality", 
    "position": "prefix",
    "genus": "Assured"
  }, 
  {
    "index": 201, 
    "randoms": [
      {
        "number": 1, 
        "flag types": [
          "MISC", 
          "PROT"
        ]
      }
    ], 
    "name": "of Dweomercraft",
    "affixType": "arcane",
    "position": "suffix",
    "genus": "of Utility"
  }, 
  {
    "index": 202, 
    "randoms": [
      {
        "number": 1, 
        "flag types": [
          "SUST"
        ]
      }
    ], 
    "name": "of Support", 
    "position": "suffix"
  }, 
  {
    "index": 203, 
    "flags": [
      "SUST_STR"
    ], 
    "name": "of Robustness", 
    "position": "suffix"
  }, 
  {
    "index": 204, 
    "flags": [
      "SUST_CON"
    ], 
    "name": "of Health", 
    "position": "suffix"
  }, 
  {
    "index": 205, 
    "flags": [
      "SUST_DEX"
    ], 
    "name": "of Adroitness", 
    "position": "suffix"
  }, 
  {
    "index": 206, 
    "flags": [
      "SLOW_DIGEST"
    ], 
    "allocations": [
      {
        "commonness": 10, 
        "maxDepth": 50, 
        "minDepth": 1, 
        "itemType": {"polearm": "all", "hafted": "all", "sword": "all"},
        "affixLevel": "good"
      }, 
      {
        "commonness": 10, 
        "maxDepth": -1, 
        "minDepth": 51, 
        "itemType": {"polearm": "all", "hafted": "all", "sword": "all"},
        "affixLevel": "average"
      }
    ], 
    "name": "of Slow Digestion",
    "affixType": "physical",
    "position": "suffix",
    "genus": "of Utility"
  }, 
  {
    "index": 208, 
    "stats": {
      "finesseBonus": "-20", 
      "baseArmor": "6%", 
      "weightMod": "6%"
    }, 
    "name": "Black Dragon Scale", 
    "affixType": "material", 
    "position": "prefix",
    "genus": "Dragon Scale",
    "flags": [
      "RES_ACID", 
      "IGNORE_ACID"
    ], 
    "allocations": [
      {
        "commonness": 6, 
        "minDepth": 35, 
        "itemType": {"boots": ["& Pair~ of Hard Boots", "& Pair~ of Greaves"], "helm": ["& Helm~", "& Full Helm~"], "soft armor": ["Studded Armor~", "Banded Armor~", "Splinted Armor~"], "hard armor": ["all except", "Ring Mail~", "Chain Mail~"], "gloves": ["all except", "& Set~ of Gloves"], "shield": "all"}, 
        "affixLevel": "great", 
        "maxDepth": -1
      }
    ]
  }, 
  {
    "index": 209, 
    "stats": {
      "finesseBonus": "-20", 
      "baseArmor": "4%", 
      "weightMod": "4%"
    }, 
    "name": "White Dragon Scale", 
    "affixType": "material", 
    "position": "prefix",
    "genus": "Dragon Scale",
    "flags": [
      "RES_COLD", 
      "IGNORE_COLD"
    ], 
    "allocations": [
      {
        "commonness": 6, 
        "minDepth": 30, 
        "itemType": {"boots": ["& Pair~ of Hard Boots", "& Pair~ of Greaves"], "helm": ["& Helm~", "& Full Helm~"], "soft armor": ["Studded Armor~", "Banded Armor~", "Splinted Armor~"], "hard armor": ["all except", "Ring Mail~", "Chain Mail~"], "gloves": ["all except", "& Set~ of Gloves"], "shield": "all"}, 
        "affixLevel": "great", 
        "maxDepth": -1
      }
    ]
  }, 
  {
    "index": 210, 
    "stats": {
      "finesseBonus": "-20", 
      "baseArmor": "2%", 
      "weightMod": "2%"
    }, 
    "name": "Blue Dragon Scale", 
    "affixType": "material", 
    "position": "prefix",
    "genus": "Dragon Scale",
    "flags": [
      "RES_ELEC", 
      "IGNORE_ELEC"
    ], 
    "allocations": [
      {
        "commonness": 6, 
        "minDepth": 25, 
        "itemType": {"boots": ["& Pair~ of Hard Boots", "& Pair~ of Greaves"], "helm": ["& Helm~", "& Full Helm~"], "soft armor": ["Studded Armor~", "Banded Armor~", "Splinted Armor~"], "hard armor": ["all except", "Ring Mail~", "Chain Mail~"], "gloves": ["all except", "& Set~ of Gloves"], "shield": "all"}, 
        "affixLevel": "great", 
        "maxDepth": -1
      }
    ]
  }, 
  {
    "index": 211, 
    "stats": {
      "finesseBonus": "-20", 
      "baseArmor": "10%", 
      "weightMod": "10%"
    }, 
    "name": "Red Dragon Scale", 
    "affixType": "material", 
    "position": "prefix",
    "genus": "Dragon Scale",
    "flags": [
      "RES_FIRE", 
      "IGNORE_FIRE"
    ], 
    "allocations": [
      {
        "commonness": 6, 
        "minDepth": 40, 
        "itemType": {"boots": ["& Pair~ of Hard Boots", "& Pair~ of Greaves"], "helm": ["& Helm~", "& Full Helm~"], "soft armor": ["Studded Armor~", "Banded Armor~", "Splinted Armor~"], "hard armor": ["all except", "Ring Mail~", "Chain Mail~"], "gloves": ["all except", "& Set~ of Gloves"], "shield": "all"}, 
        "affixLevel": "great", 
        "maxDepth": -1
      }
    ]
  }, 
  {
    "index": 212, 
    "stats": {
      "finesseBonus": "-20", 
      "baseArmor": "8%", 
      "weightMod": "8%"
    }, 
    "name": "Green Dragon Scale", 
    "affixType": "material", 
    "position": "prefix",
    "genus": "Dragon Scale",
    "flags": [
      "RES_POIS"
    ], 
    "allocations": [
      {
        "commonness": 6, 
        "minDepth": 60, 
        "itemType": {"boots": ["& Pair~ of Hard Boots", "& Pair~ of Greaves"], "helm": ["& Helm~", "& Full Helm~"], "soft armor": ["Studded Armor~", "Banded Armor~", "Splinted Armor~"], "hard armor": ["all except", "Ring Mail~", "Chain Mail~"], "gloves": ["all except", "& Set~ of Gloves"], "shield": "all"}, 
        "affixLevel": "great", 
        "maxDepth": -1
      }
    ]
  }, 
  {
    "index": 213, 
    "stats": {
      "finesseBonus": "-20", 
      "baseArmor": "12%", 
      "weightMod": "12%"
    }, 
    "name": "Gold Dragon Scale", 
    "affixType": "material", 
    "position": "prefix",
    "genus": "Dragon Scale",
    "flags": [
      "RES_SOUND"
    ], 
    "allocations": [
      {
        "commonness": 6, 
        "minDepth": 70, 
        "itemType": {"boots": ["& Pair~ of Hard Boots", "& Pair~ of Greaves"], "helm": ["& Helm~", "& Full Helm~"], "soft armor": ["Studded Armor~", "Banded Armor~", "Splinted Armor~"], "hard armor": ["all except", "Ring Mail~", "Chain Mail~"], "gloves": ["all except", "& Set~ of Gloves"], "shield": "all"}, 
        "affixLevel": "great", 
        "maxDepth": -1
      }
    ]
  }, 
  {
    "index": 214, 
    "stats": {
      "finesseBonus": "-20", 
      "baseArmor": "14%", 
      "weightMod": "14%" 
    }, 
    "name": "Pseudo-dragon Scale", 
    "affixType": "material", 
    "position": "prefix",
    "genus": "Dragon Scale",
    "flags": [
      "RES_LIGHT", 
      "RES_DARK"
    ], 
    "allocations": [
      {
        "commonness": 5, 
        "minDepth": 75, 
        "itemType": {"boots": ["& Pair~ of Hard Boots", "& Pair~ of Greaves"], "helm": ["& Helm~", "& Full Helm~"], "soft armor": ["Studded Armor~", "Banded Armor~", "Splinted Armor~"], "gloves": ["all except", "& Set~ of Gloves"], "shield": "all"}, 
        "affixLevel": "uber", 
        "maxDepth": -1
      }, 
      {
        "commonness": 5, 
        "minDepth": 75, 
        "itemType": {"hard armor": ["all except", "Ring Mail~", "Chain Mail~"]},
        "affixLevel": "uber", 
        "maxDepth": 85
      }, 
      {
        "commonness": 5, 
        "minDepth": 86, 
        "itemType": {"hard armor": ["all except", "Ring Mail~", "Chain Mail~"]},
        "affixLevel": "great", 
        "maxDepth": -1
      }
    ]
  }, 
  {
    "index": 215, 
    "stats": {
      "finesseBonus": "-20", 
      "baseArmor": "16%", 
      "weightMod": "16%" 
    }, 
    "name": "Law Dragon Scale", 
    "affixType": "material", 
    "position": "prefix",
    "genus": "Dragon Scale",
    "flags": [
      "RES_SOUND", 
      "RES_SHARD"
    ], 
    "allocations": [
      {
        "commonness": 5, 
        "minDepth": 80, 
        "itemType": {"boots": ["& Pair~ of Hard Boots", "& Pair~ of Greaves"], "helm": ["& Helm~", "& Full Helm~"], "soft armor": ["Studded Armor~", "Banded Armor~", "Splinted Armor~"], "gloves": ["all except", "& Set~ of Gloves"], "shield": "all"}, 
        "affixLevel": "uber", 
        "maxDepth": -1
      }, 
      {
        "commonness": 5, 
        "minDepth": 80, 
        "itemType": {"hard armor": ["all except", "Ring Mail~", "Chain Mail~"]},
        "affixLevel": "uber", 
        "maxDepth": 90
      }, 
      {
        "commonness": 5, 
        "minDepth": 91, 
        "itemType": {"hard armor": ["all except", "Ring Mail~", "Chain Mail~"]},
        "affixLevel": "great", 
        "maxDepth": -1
      }
    ]
  }, 
  {
    "index": 216, 
    "stats": {
      "finesseBonus": "-20", 
      "baseArmor": "18%", 
      "weightMod": "18%"
    }, 
    "name": "Chaos Dragon Scale", 
    "affixType": "material", 
    "position": "prefix",
    "genus": "Dragon Scale",
    "flags": [
      "RES_CHAOS", 
      "RES_DISEN"
    ], 
    "allocations": [
      {
        "commonness": 4, 
        "minDepth": 85, 
        "itemType": {"boots": ["& Pair~ of Hard Boots", "& Pair~ of Greaves"], "helm": ["& Helm~", "& Full Helm~"], "soft armor": ["Studded Armor~", "Banded Armor~", "Splinted Armor~"], "gloves": ["all except", "& Set~ of Gloves"], "shield": "all"}, 
        "affixLevel": "uber", 
        "maxDepth": -1
      }, 
      {
        "commonness": 4, 
        "minDepth": 85, 
        "itemType": {"hard armor": ["all except", "Ring Mail~", "Chain Mail~"]},
        "affixLevel": "uber", 
        "maxDepth": 90
      }, 
      {
        "commonness": 4, 
        "minDepth": 95, 
        "itemType": {"hard armor": ["all except", "Ring Mail~", "Chain Mail~"]},
        "affixLevel": "great", 
        "maxDepth": -1
      }
    ]
  }, 
  {
    "index": 217, 
    "stats": {
      "armorBonus": "10", 
      "weightMod": "-100%"
    }, 
    "description": "It is unearthly, completely transparent and shimmers in iridescent patterns around you. It weighs absolutely nothing.", 
    "name": "Ethereal",
    "affixType": "quality", 
    "position": "prefix",
    "genus": "Unearthly",
    "flags": [
      "IGNORE_ACID", 
      "IGNORE_FIRE", 
      "IGNORE_COLD", 
      "IGNORE_ELEC"
    ], 
    "allocations": [
      {
        "commonness": 10, 
        "maxDepth": -1, 
        "minDepth": 70, 
        "itemType": {"cloak": "all"}, 
        "affixLevel": "great"
      }
    ]
  }, 
  {
    "index": 218, 
    "description": " It is covered with rubies, sapphires and emeralds.", 
    "flags": [
      "IGNORE_ACID"
    ], 
    "allocations": [
      {
        "commonness": 10, 
        "maxDepth": 70, 
        "minDepth": 50, 
        "itemType": {"crown": "all"}, 
        "affixLevel": "good"
      }, 
      {
        "commonness": 10, 
        "maxDepth": -1, 
        "minDepth": 71, 
        "itemType": {"crown": "all"}, 
        "affixLevel": "average"
      }
    ], 
    "name": "Jewel Encrusted",
    "affixType": "quality", 
    "position": "prefix",
    "genus": "Assured"
  }, 
  {
    "index": 219, 
    "stats": {
      "armorBonus": "2"
    }, 
    "description": "It is highly protective, designed for an alchemist's elemental magics.", 
    "flags": [
      "IGNORE_ACID", 
      "IGNORE_FIRE", 
      "IGNORE_COLD", 
      "IGNORE_ELEC", 
      "SPELLS_OK"
    ], 
    "allocations": [
      {
        "commonness": 10, 
        "minDepth": 50, 
        "itemType": {"gloves": ["all except", "& Set~ of Caestus"]},
        "affixLevel": "great", 
        "maxDepth": -1
      }
    ], 
    "name": "Alchemist's",
    "affixType": "make", 
    "position": "prefix",
    "genus": "Assured"
  },
  {
    "index": 220,
    "name": "of Elvenkind",
    "position": "suffix",
    "affixType": "arcane",
    "genus": "of the Rogue",
    "stats": {
      "baseArmor": "100%",
      "weightMod": "-50%"
    },
    "mods": [
      {
        "bonus": "1", 
        "minimum": "1", 
        "flags": [
          "STEALTH",
          "SPEED"
        ]
      }
    ],
    "allocations": [
      {
        "commonness": 8,
        "minDepth": 40,
        "maxDepth": -1,
        "itemType": {"cloak": "all"},
        "affixLevel": "great"
      }
    ],
    "description": "It is made by the Galadrim, and takes on the hues of its surroundings."
  }
]
